HTTP request from 41.140.207.206 to http://pressionducapteur.serveo.net/public/css/bootstrap.min.css
HTTP request from 41.140.207.206 to http://pressionducapteur.serveo.net/public/css/bootstrap-theme.min.css
HTTP request from 41.140.207.206 to http://pressionducapteur.serveo.net/public/css/style.css
HTTP request from 41.140.207.206 to http://pressionducapteur.serveo.net/public/css/codemirror.css
HTTP request from 41.140.207.206 to http://pressionducapteur.serveo.net/public/css/theme/rubyblue.css
HTTP request from 41.140.207.206 to http://pressionducapteur.serveo.net/public/img/mongo-express-logo.png
HTTP request from 41.140.207.206 to http://pressionducapteur.serveo.net/public/vendor-47ad38d08af7dbfa26be.min.js
HTTP request from 41.140.207.206 to http://pressionducapteur.serveo.net/public/codemirror-298693927a3d2ff0c905.min.js
HTTP request from 41.140.207.206 to http://pressionducapteur.serveo.net/public/document-14c5429f8bb0330baeef.min.js
HTTP request from 41.140.207.206 to http://pressionducapteur.serveo.net/public/img/gears.gif
HTTP request from 41.140.207.206 to http://pressionducapteur.serveo.net/public/fonts/glyphicons-halflings-regular.woff2
