HTTP request from 77.195.186.29 to https://pressionducapteur.serveo.net/public/css/bootstrap.min.css
HTTP request from 77.195.186.29 to https://pressionducapteur.serveo.net/public/css/bootstrap-theme.min.css
HTTP request from 77.195.186.29 to https://pressionducapteur.serveo.net/public/css/style.css
HTTP request from 77.195.186.29 to https://pressionducapteur.serveo.net/public/vendor-47ad38d08af7dbfa26be.min.js
HTTP request from 77.195.186.29 to https://pressionducapteur.serveo.net/public/img/mongo-express-logo.png
HTTP request from 77.195.186.29 to https://pressionducapteur.serveo.net/public/database-d63e752d3031610834d2.min.js
HTTP request from 77.195.186.29 to https://pressionducapteur.serveo.net/db/Webapp/User
HTTP request from 77.195.186.29 to https://pressionducapteur.serveo.net/public/vendor-47ad38d08af7dbfa26be.min.js
HTTP request from 77.195.186.29 to https://pressionducapteur.serveo.net/public/css/bootstrap-theme.min.css
HTTP request from 77.195.186.29 to https://pressionducapteur.serveo.net/public/css/style.css
HTTP request from 77.195.186.29 to https://pressionducapteur.serveo.net/public/css/bootstrap.min.css
HTTP request from 77.195.186.29 to https://pressionducapteur.serveo.net/public/css/codemirror.css
HTTP request from 77.195.186.29 to https://pressionducapteur.serveo.net/public/css/theme/rubyblue.css
HTTP request from 77.195.186.29 to https://pressionducapteur.serveo.net/public/codemirror-298693927a3d2ff0c905.min.js
HTTP request from 77.195.186.29 to https://pressionducapteur.serveo.net/public/collection-de5030f1c86993d175a9.min.js
HTTP request from 77.195.186.29 to https://pressionducapteur.serveo.net/public/img/mongo-express-logo.png
