[0mGET /public/fonts/glyphicons-halflings-regular.woff2 [36m304 [0m0.728 ms - -[0m
[0mGET /db/Chatbot/User_data/%25225b9faaadd67e5407ac761bbd%2522 [36m304 [0m24.140 ms - -[0m
[0mGET /public/css/bootstrap.min.css [36m304 [0m0.674 ms - -[0m
[0mGET /public/css/bootstrap-theme.min.css [36m304 [0m1.189 ms - -[0m
[0mGET /public/css/style.css [36m304 [0m1.205 ms - -[0m
[0mGET /public/vendor-47ad38d08af7dbfa26be.min.js [36m304 [0m1.292 ms - -[0m
[0mGET /public/css/codemirror.css [36m304 [0m1.393 ms - -[0m
[0mGET /public/css/theme/rubyblue.css [36m304 [0m2.383 ms - -[0m
[0mGET /public/codemirror-298693927a3d2ff0c905.min.js [36m304 [0m2.355 ms - -[0m
[0mGET /public/document-14c5429f8bb0330baeef.min.js [36m304 [0m2.416 ms - -[0m
[0mGET /public/img/mongo-express-logo.png [36m304 [0m1.389 ms - -[0m
[0mGET /public/img/gears.gif [32m200 [0m0.986 ms - 50281[0m
[0mGET /db/Chatbot/User_data/%25225b9faaadd67e5407ac761bbd%2522 [36m304 [0m19.790 ms - -[0m
[0mGET /public/css/bootstrap-theme.min.css [36m304 [0m0.366 ms - -[0m
[0mGET /public/css/bootstrap.min.css [36m304 [0m0.311 ms - -[0m
[0mGET /public/css/style.css [36m304 [0m0.254 ms - -[0m
[0mGET /public/css/codemirror.css [36m304 [0m0.284 ms - -[0m
[0mGET /public/css/theme/rubyblue.css [36m304 [0m1.168 ms - -[0m
[0mGET /public/img/mongo-express-logo.png [36m304 [0m0.269 ms - -[0m
[0mGET /public/vendor-47ad38d08af7dbfa26be.min.js [36m304 [0m0.236 ms - -[0m
[0mGET /public/document-14c5429f8bb0330baeef.min.js [36m304 [0m0.264 ms - -[0m
[0mGET /public/codemirror-298693927a3d2ff0c905.min.js [36m304 [0m0.270 ms - -[0m
[0mGET /public/fonts/glyphicons-halflings-regular.woff2 [36m304 [0m0.328 ms - -[0m
[0mPOST /checkValid [32m200 [0m6.497 ms - 7[0m
[0mPOST /checkValid [32m200 [0m6.773 ms - 5[0m
[0mPUT /db/Chatbot/User_data/%225b9faaadd67e5407ac761bbd%22 [36m302 [0m9.111 ms - 86[0m
[0mGET /db/Chatbot/User_data [32m200 [0m68.367 ms - 25617[0m
[0mGET /db/Chatbot/User_data [32m200 [0m61.746 ms - 25451[0m
[0mGET /public/css/bootstrap.min.css [32m200 [0m0.718 ms - 121200[0m
[0mGET /public/css/codemirror.css [32m200 [0m1.798 ms - 8542[0m
[0mGET /public/css/theme/rubyblue.css [32m200 [0m1.763 ms - 1801[0m
[0mGET /public/css/style.css [32m200 [0m1.758 ms - 1883[0m
[0mGET /public/css/bootstrap-theme.min.css [32m200 [0m1.421 ms - 23409[0m
[0mGET /public/img/mongo-express-logo.png [32m200 [0m0.491 ms - 17847[0m
[0mGET /public/vendor-47ad38d08af7dbfa26be.min.js [32m200 [0m0.473 ms - 126314[0m
[0mGET /public/collection-de5030f1c86993d175a9.min.js [32m200 [0m0.781 ms - 9946[0m
[0mGET /public/codemirror-298693927a3d2ff0c905.min.js [32m200 [0m0.665 ms - 184058[0m
[0mGET /public/img/gears.gif [32m200 [0m0.578 ms - 50281[0m
[0mGET /db/Chatbot/User_data/%25225b9faaadd67e5407ac761bbd%2522 [36m304 [0m17.417 ms - -[0m
[0mGET /public/css/bootstrap.min.css [36m304 [0m0.638 ms - -[0m
[0mGET /public/css/bootstrap-theme.min.css [36m304 [0m0.571 ms - -[0m
[0mGET /public/css/codemirror.css [36m304 [0m0.741 ms - -[0m
[0mGET /public/css/theme/rubyblue.css [36m304 [0m0.712 ms - -[0m
[0mGET /public/css/style.css [36m304 [0m0.700 ms - -[0m
[0mGET /public/vendor-47ad38d08af7dbfa26be.min.js [36m304 [0m1.058 ms - -[0m
[0mGET /public/img/mongo-express-logo.png [36m304 [0m1.096 ms - -[0m
[0mGET /public/codemirror-298693927a3d2ff0c905.min.js [36m304 [0m1.065 ms - -[0m
[0mGET /public/document-14c5429f8bb0330baeef.min.js [36m304 [0m1.016 ms - -[0m
[0mGET /public/img/gears.gif [32m200 [0m0.569 ms - 50281[0m
