Hi there
Connection to serveo.net closed by remote host.
Pseudo-terminal will not be allocated because stdin is not a terminal.
Hi there
Connection to serveo.net closed by remote host.
Pseudo-terminal will not be allocated because stdin is not a terminal.
Hi there
Connection to serveo.net closed by remote host.
Pseudo-terminal will not be allocated because stdin is not a terminal.
Hi there
Connection to serveo.net closed by remote host.
Pseudo-terminal will not be allocated because stdin is not a terminal.
Hi there
Connection to serveo.net closed by remote host.
Pseudo-terminal will not be allocated because stdin is not a terminal.
Hi there
Connection to serveo.net closed by remote host.
Pseudo-terminal will not be allocated because stdin is not a terminal.
Hi there
Connection to serveo.net closed by remote host.
Pseudo-terminal will not be allocated because stdin is not a terminal.
Hi there
Connection to serveo.net closed by remote host.
Pseudo-terminal will not be allocated because stdin is not a terminal.
Hi there
Connection to serveo.net closed by remote host.
Pseudo-terminal will not be allocated because stdin is not a terminal.
Hi there
Connection to serveo.net closed by remote host.
Pseudo-terminal will not be allocated because stdin is not a terminal.
Hi there
Connection to serveo.net closed by remote host.
Pseudo-terminal will not be allocated because stdin is not a terminal.
Hi there
Connection to serveo.net closed by remote host.
Pseudo-terminal will not be allocated because stdin is not a terminal.
Hi there
Connection to serveo.net closed by remote host.
Pseudo-terminal will not be allocated because stdin is not a terminal.
Hi there
Connection to serveo.net closed by remote host.
Pseudo-terminal will not be allocated because stdin is not a terminal.
Hi there
Connection to serveo.net closed by remote host.
Pseudo-terminal will not be allocated because stdin is not a terminal.
Hi there
Connection to serveo.net closed by remote host.
Pseudo-terminal will not be allocated because stdin is not a terminal.
Hi there
Connection to serveo.net closed by remote host.
Pseudo-terminal will not be allocated because stdin is not a terminal.
Hi there
Connection to serveo.net closed by remote host.
Pseudo-terminal will not be allocated because stdin is not a terminal.
Hi there
Connection to serveo.net closed by remote host.
Pseudo-terminal will not be allocated because stdin is not a terminal.
Hi there
Connection to serveo.net closed by remote host.
Pseudo-terminal will not be allocated because stdin is not a terminal.
Hi there
Connection to serveo.net closed by remote host.
Pseudo-terminal will not be allocated because stdin is not a terminal.
Hi there
Connection to serveo.net closed by remote host.
Pseudo-terminal will not be allocated because stdin is not a terminal.
Hi there
Connection to serveo.net closed by remote host.
Pseudo-terminal will not be allocated because stdin is not a terminal.
Hi there
Connection to serveo.net closed by remote host.
Pseudo-terminal will not be allocated because stdin is not a terminal.
Hi there
Connection to serveo.net closed by remote host.
Pseudo-terminal will not be allocated because stdin is not a terminal.
Hi there
Connection to serveo.net closed by remote host.
Pseudo-terminal will not be allocated because stdin is not a terminal.
Hi there
Connection to serveo.net closed by remote host.
Pseudo-terminal will not be allocated because stdin is not a terminal.
Hi there
Connection to serveo.net closed by remote host.
Pseudo-terminal will not be allocated because stdin is not a terminal.
Hi there
Connection to serveo.net closed by remote host.
Pseudo-terminal will not be allocated because stdin is not a terminal.
Hi there
Connection to serveo.net closed by remote host.
Pseudo-terminal will not be allocated because stdin is not a terminal.
Hi there
Connection to serveo.net closed by remote host.
Pseudo-terminal will not be allocated because stdin is not a terminal.
Hi there
Connection to serveo.net closed by remote host.
Pseudo-terminal will not be allocated because stdin is not a terminal.
Hi there
Connection to serveo.net closed by remote host.
Pseudo-terminal will not be allocated because stdin is not a terminal.
Hi there
Connection to serveo.net closed by remote host.
Pseudo-terminal will not be allocated because stdin is not a terminal.
Hi there
Connection to serveo.net closed by remote host.
Pseudo-terminal will not be allocated because stdin is not a terminal.
Hi there
Connection to serveo.net closed by remote host.
Pseudo-terminal will not be allocated because stdin is not a terminal.
Hi there
Connection to serveo.net closed by remote host.
Pseudo-terminal will not be allocated because stdin is not a terminal.
Hi there
Connection to serveo.net closed by remote host.
Pseudo-terminal will not be allocated because stdin is not a terminal.
Hi there
Connection to serveo.net closed by remote host.
Pseudo-terminal will not be allocated because stdin is not a terminal.
Hi there
Connection to serveo.net closed by remote host.
Pseudo-terminal will not be allocated because stdin is not a terminal.
Hi there
Connection to serveo.net closed by remote host.
Pseudo-terminal will not be allocated because stdin is not a terminal.
Hi there
Connection to serveo.net closed by remote host.
Pseudo-terminal will not be allocated because stdin is not a terminal.
Hi there
Connection to serveo.net closed by remote host.
Pseudo-terminal will not be allocated because stdin is not a terminal.
Hi there
Connection to serveo.net closed by remote host.
Pseudo-terminal will not be allocated because stdin is not a terminal.
Hi there
Connection to serveo.net closed by remote host.
Pseudo-terminal will not be allocated because stdin is not a terminal.
Hi there
Connection to serveo.net closed by remote host.
Pseudo-terminal will not be allocated because stdin is not a terminal.
Hi there
Connection to serveo.net closed by remote host.
Pseudo-terminal will not be allocated because stdin is not a terminal.
Hi there
Connection to serveo.net closed by remote host.
Pseudo-terminal will not be allocated because stdin is not a terminal.
Hi there
Connection to serveo.net closed by remote host.
Pseudo-terminal will not be allocated because stdin is not a terminal.
Hi there
Connection to serveo.net closed by remote host.
Pseudo-terminal will not be allocated because stdin is not a terminal.
Hi there
Connection to serveo.net closed by remote host.
Pseudo-terminal will not be allocated because stdin is not a terminal.
Hi there
Connection to serveo.net closed by remote host.
Pseudo-terminal will not be allocated because stdin is not a terminal.
Hi there
Connection to serveo.net closed by remote host.
Pseudo-terminal will not be allocated because stdin is not a terminal.
Hi there
Connection to serveo.net closed by remote host.
Pseudo-terminal will not be allocated because stdin is not a terminal.
Hi there
Connection to serveo.net closed by remote host.
Pseudo-terminal will not be allocated because stdin is not a terminal.
Hi there
Connection to serveo.net closed by remote host.
Pseudo-terminal will not be allocated because stdin is not a terminal.
Hi there
Connection to serveo.net closed by remote host.
Pseudo-terminal will not be allocated because stdin is not a terminal.
Hi there
Connection to serveo.net closed by remote host.
Pseudo-terminal will not be allocated because stdin is not a terminal.
Hi there
Connection to serveo.net closed by remote host.
Pseudo-terminal will not be allocated because stdin is not a terminal.
Hi there
Connection to serveo.net closed by remote host.
Pseudo-terminal will not be allocated because stdin is not a terminal.
Hi there
Connection to serveo.net closed by remote host.
Pseudo-terminal will not be allocated because stdin is not a terminal.
Hi there
Connection to serveo.net closed by remote host.
Pseudo-terminal will not be allocated because stdin is not a terminal.
Hi there
Connection to serveo.net closed by remote host.
Pseudo-terminal will not be allocated because stdin is not a terminal.
Hi there
Connection to serveo.net closed by remote host.
Pseudo-terminal will not be allocated because stdin is not a terminal.
Hi there
Connection to serveo.net closed by remote host.
Pseudo-terminal will not be allocated because stdin is not a terminal.
Hi there
Connection to serveo.net closed by remote host.
Pseudo-terminal will not be allocated because stdin is not a terminal.
Hi there
Connection to serveo.net closed by remote host.
Pseudo-terminal will not be allocated because stdin is not a terminal.
Hi there
Connection to serveo.net closed by remote host.
Pseudo-terminal will not be allocated because stdin is not a terminal.
Hi there
Connection to serveo.net closed by remote host.
Pseudo-terminal will not be allocated because stdin is not a terminal.
Hi there
Connection to serveo.net closed by remote host.
Pseudo-terminal will not be allocated because stdin is not a terminal.
Hi there
Connection to serveo.net closed by remote host.
Pseudo-terminal will not be allocated because stdin is not a terminal.
Hi there
Connection to serveo.net closed by remote host.
Pseudo-terminal will not be allocated because stdin is not a terminal.
Hi there
Connection to serveo.net closed by remote host.
Pseudo-terminal will not be allocated because stdin is not a terminal.
Hi there
Connection to serveo.net closed by remote host.
Pseudo-terminal will not be allocated because stdin is not a terminal.
Hi there
Connection to serveo.net closed by remote host.
Pseudo-terminal will not be allocated because stdin is not a terminal.
Hi there
Connection to serveo.net closed by remote host.
Pseudo-terminal will not be allocated because stdin is not a terminal.
Hi there
Connection to serveo.net closed by remote host.
Pseudo-terminal will not be allocated because stdin is not a terminal.
Hi there
Connection to serveo.net closed by remote host.
Pseudo-terminal will not be allocated because stdin is not a terminal.
Hi there
Connection to serveo.net closed by remote host.
Pseudo-terminal will not be allocated because stdin is not a terminal.
Hi there
Connection to serveo.net closed by remote host.
Pseudo-terminal will not be allocated because stdin is not a terminal.
Hi there
Connection to serveo.net closed by remote host.
Pseudo-terminal will not be allocated because stdin is not a terminal.
Hi there
Connection to serveo.net closed by remote host.
Pseudo-terminal will not be allocated because stdin is not a terminal.
Hi there
Connection to serveo.net closed by remote host.
Pseudo-terminal will not be allocated because stdin is not a terminal.
Hi there
Connection to serveo.net closed by remote host.
Pseudo-terminal will not be allocated because stdin is not a terminal.
Hi there
Connection to serveo.net closed by remote host.
Pseudo-terminal will not be allocated because stdin is not a terminal.
Hi there
Connection to serveo.net closed by remote host.
Pseudo-terminal will not be allocated because stdin is not a terminal.
Hi there
Connection to serveo.net closed by remote host.
Pseudo-terminal will not be allocated because stdin is not a terminal.
Hi there
Connection to serveo.net closed by remote host.
Pseudo-terminal will not be allocated because stdin is not a terminal.
Hi there
Connection to serveo.net closed by remote host.
Pseudo-terminal will not be allocated because stdin is not a terminal.
Hi there
Connection to serveo.net closed by remote host.
Pseudo-terminal will not be allocated because stdin is not a terminal.
Hi there
Connection to serveo.net closed by remote host.
Pseudo-terminal will not be allocated because stdin is not a terminal.
Hi there
Connection to serveo.net closed by remote host.
Pseudo-terminal will not be allocated because stdin is not a terminal.
Hi there
Connection to serveo.net closed by remote host.
Pseudo-terminal will not be allocated because stdin is not a terminal.
Hi there
Connection to serveo.net closed by remote host.
Pseudo-terminal will not be allocated because stdin is not a terminal.
Hi there
Connection to serveo.net closed by remote host.
Pseudo-terminal will not be allocated because stdin is not a terminal.
Hi there
Connection to serveo.net closed by remote host.
Pseudo-terminal will not be allocated because stdin is not a terminal.
Hi there
Connection to serveo.net closed by remote host.
Pseudo-terminal will not be allocated because stdin is not a terminal.
Hi there
Connection to serveo.net closed by remote host.
Pseudo-terminal will not be allocated because stdin is not a terminal.
Hi there
Connection to serveo.net closed by remote host.
Pseudo-terminal will not be allocated because stdin is not a terminal.
Hi there
Connection to serveo.net closed by remote host.
Pseudo-terminal will not be allocated because stdin is not a terminal.
Hi there
Connection to serveo.net closed by remote host.
Pseudo-terminal will not be allocated because stdin is not a terminal.
Hi there
Connection to serveo.net closed by remote host.
Pseudo-terminal will not be allocated because stdin is not a terminal.
Hi there
Connection to serveo.net closed by remote host.
Pseudo-terminal will not be allocated because stdin is not a terminal.
Hi there
Connection to serveo.net closed by remote host.
Pseudo-terminal will not be allocated because stdin is not a terminal.
Hi there
Connection to serveo.net closed by remote host.
Pseudo-terminal will not be allocated because stdin is not a terminal.
Hi there
Connection to serveo.net closed by remote host.
Pseudo-terminal will not be allocated because stdin is not a terminal.
Hi there
Connection to serveo.net closed by remote host.
Pseudo-terminal will not be allocated because stdin is not a terminal.
Hi there
Connection to serveo.net closed by remote host.
Pseudo-terminal will not be allocated because stdin is not a terminal.
Hi there
Connection to serveo.net closed by remote host.
Pseudo-terminal will not be allocated because stdin is not a terminal.
Hi there
Connection to serveo.net closed by remote host.
Pseudo-terminal will not be allocated because stdin is not a terminal.
Hi there
Connection to serveo.net closed by remote host.
Pseudo-terminal will not be allocated because stdin is not a terminal.
Hi there
Connection to serveo.net closed by remote host.
Pseudo-terminal will not be allocated because stdin is not a terminal.
Hi there
Connection to serveo.net closed by remote host.
Pseudo-terminal will not be allocated because stdin is not a terminal.
Hi there
Connection to serveo.net closed by remote host.
Pseudo-terminal will not be allocated because stdin is not a terminal.
Hi there
Connection to serveo.net closed by remote host.
Pseudo-terminal will not be allocated because stdin is not a terminal.
Hi there
Connection to serveo.net closed by remote host.
Pseudo-terminal will not be allocated because stdin is not a terminal.
Hi there
Connection to serveo.net closed by remote host.
Pseudo-terminal will not be allocated because stdin is not a terminal.
Hi there
Connection to serveo.net closed by remote host.
Pseudo-terminal will not be allocated because stdin is not a terminal.
Hi there
Connection to serveo.net closed by remote host.
Pseudo-terminal will not be allocated because stdin is not a terminal.
Hi there
Connection to serveo.net closed by remote host.
Pseudo-terminal will not be allocated because stdin is not a terminal.
Hi there
Connection to serveo.net closed by remote host.
Pseudo-terminal will not be allocated because stdin is not a terminal.
Hi there
Connection to serveo.net closed by remote host.
Pseudo-terminal will not be allocated because stdin is not a terminal.
Hi there
Connection to serveo.net closed by remote host.
Pseudo-terminal will not be allocated because stdin is not a terminal.
Hi there
Connection to serveo.net closed by remote host.
Pseudo-terminal will not be allocated because stdin is not a terminal.
Hi there
Connection to serveo.net closed by remote host.
Pseudo-terminal will not be allocated because stdin is not a terminal.
Hi there
Connection to serveo.net closed by remote host.
Pseudo-terminal will not be allocated because stdin is not a terminal.
Hi there
Connection to serveo.net closed by remote host.
Pseudo-terminal will not be allocated because stdin is not a terminal.
Hi there
Connection to serveo.net closed by remote host.
Pseudo-terminal will not be allocated because stdin is not a terminal.
Hi there
Connection to serveo.net closed by remote host.
Pseudo-terminal will not be allocated because stdin is not a terminal.
Hi there
Connection to serveo.net closed by remote host.
Pseudo-terminal will not be allocated because stdin is not a terminal.
Hi there
Connection to serveo.net closed by remote host.
Pseudo-terminal will not be allocated because stdin is not a terminal.
Hi there
Connection to serveo.net closed by remote host.
Pseudo-terminal will not be allocated because stdin is not a terminal.
Hi there
Connection to serveo.net closed by remote host.
Pseudo-terminal will not be allocated because stdin is not a terminal.
Hi there
Connection to serveo.net closed by remote host.
Pseudo-terminal will not be allocated because stdin is not a terminal.
Hi there
Connection to serveo.net closed by remote host.
Pseudo-terminal will not be allocated because stdin is not a terminal.
Hi there
Connection to serveo.net closed by remote host.
Pseudo-terminal will not be allocated because stdin is not a terminal.
Hi there
Connection to serveo.net closed by remote host.
Pseudo-terminal will not be allocated because stdin is not a terminal.
Hi there
Connection to serveo.net closed by remote host.
Pseudo-terminal will not be allocated because stdin is not a terminal.
Hi there
Connection to serveo.net closed by remote host.
Pseudo-terminal will not be allocated because stdin is not a terminal.
Hi there
Connection to serveo.net closed by remote host.
Pseudo-terminal will not be allocated because stdin is not a terminal.
Hi there
Connection to serveo.net closed by remote host.
Pseudo-terminal will not be allocated because stdin is not a terminal.
Hi there
Connection to serveo.net closed by remote host.
Pseudo-terminal will not be allocated because stdin is not a terminal.
Hi there
Connection to serveo.net closed by remote host.
Pseudo-terminal will not be allocated because stdin is not a terminal.
Hi there
Connection to serveo.net closed by remote host.
Pseudo-terminal will not be allocated because stdin is not a terminal.
Hi there
Connection to serveo.net closed by remote host.
Pseudo-terminal will not be allocated because stdin is not a terminal.
Hi there
Connection to serveo.net closed by remote host.
Pseudo-terminal will not be allocated because stdin is not a terminal.
Hi there
Connection to serveo.net closed by remote host.
Pseudo-terminal will not be allocated because stdin is not a terminal.
Hi there
Connection to serveo.net closed by remote host.
Pseudo-terminal will not be allocated because stdin is not a terminal.
Hi there
Connection to serveo.net closed by remote host.
Pseudo-terminal will not be allocated because stdin is not a terminal.
Hi there
Connection to serveo.net closed by remote host.
Pseudo-terminal will not be allocated because stdin is not a terminal.
Hi there
Connection to serveo.net closed by remote host.
Pseudo-terminal will not be allocated because stdin is not a terminal.
Hi there
Connection to serveo.net closed by remote host.
Pseudo-terminal will not be allocated because stdin is not a terminal.
Hi there
Connection to serveo.net closed by remote host.
Pseudo-terminal will not be allocated because stdin is not a terminal.
Hi there
Connection to serveo.net closed by remote host.
Pseudo-terminal will not be allocated because stdin is not a terminal.
Hi there
Connection to serveo.net closed by remote host.
Pseudo-terminal will not be allocated because stdin is not a terminal.
Hi there
Connection to serveo.net closed by remote host.
Pseudo-terminal will not be allocated because stdin is not a terminal.
Hi there
Connection to serveo.net closed by remote host.
Pseudo-terminal will not be allocated because stdin is not a terminal.
Hi there
Connection to serveo.net closed by remote host.
Pseudo-terminal will not be allocated because stdin is not a terminal.
Hi there
Connection to serveo.net closed by remote host.
Pseudo-terminal will not be allocated because stdin is not a terminal.
Hi there
Connection to serveo.net closed by remote host.
Pseudo-terminal will not be allocated because stdin is not a terminal.
Hi there
Connection to serveo.net closed by remote host.
Pseudo-terminal will not be allocated because stdin is not a terminal.
Hi there
Connection to serveo.net closed by remote host.
Pseudo-terminal will not be allocated because stdin is not a terminal.
Hi there
Connection to serveo.net closed by remote host.
Pseudo-terminal will not be allocated because stdin is not a terminal.
Hi there
Connection to serveo.net closed by remote host.
Pseudo-terminal will not be allocated because stdin is not a terminal.
Hi there
Connection to serveo.net closed by remote host.
Pseudo-terminal will not be allocated because stdin is not a terminal.
Hi there
Connection to serveo.net closed by remote host.
Pseudo-terminal will not be allocated because stdin is not a terminal.
Hi there
Connection to serveo.net closed by remote host.
Pseudo-terminal will not be allocated because stdin is not a terminal.
Hi there
Connection to serveo.net closed by remote host.
Pseudo-terminal will not be allocated because stdin is not a terminal.
Hi there
Connection to serveo.net closed by remote host.
Pseudo-terminal will not be allocated because stdin is not a terminal.
Hi there
Connection to serveo.net closed by remote host.
Pseudo-terminal will not be allocated because stdin is not a terminal.
Hi there
Connection to serveo.net closed by remote host.
Pseudo-terminal will not be allocated because stdin is not a terminal.
Hi there
Connection to serveo.net closed by remote host.
Pseudo-terminal will not be allocated because stdin is not a terminal.
Hi there
Connection to serveo.net closed by remote host.
Pseudo-terminal will not be allocated because stdin is not a terminal.
Hi there
Connection to serveo.net closed by remote host.
Pseudo-terminal will not be allocated because stdin is not a terminal.
Hi there
Connection to serveo.net closed by remote host.
Pseudo-terminal will not be allocated because stdin is not a terminal.
Hi there
Connection to serveo.net closed by remote host.
Pseudo-terminal will not be allocated because stdin is not a terminal.
Hi there
Connection to serveo.net closed by remote host.
Pseudo-terminal will not be allocated because stdin is not a terminal.
Hi there
Connection to serveo.net closed by remote host.
Pseudo-terminal will not be allocated because stdin is not a terminal.
Hi there
Connection to serveo.net closed by remote host.
Pseudo-terminal will not be allocated because stdin is not a terminal.
Hi there
Connection to serveo.net closed by remote host.
Pseudo-terminal will not be allocated because stdin is not a terminal.
Hi there
Connection to serveo.net closed by remote host.
Pseudo-terminal will not be allocated because stdin is not a terminal.
Hi there
Connection to serveo.net closed by remote host.
Pseudo-terminal will not be allocated because stdin is not a terminal.
Hi there
Connection to serveo.net closed by remote host.
Pseudo-terminal will not be allocated because stdin is not a terminal.
Hi there
Connection to serveo.net closed by remote host.
Pseudo-terminal will not be allocated because stdin is not a terminal.
Hi there
Connection to serveo.net closed by remote host.
Pseudo-terminal will not be allocated because stdin is not a terminal.
Hi there
Connection to serveo.net closed by remote host.
Pseudo-terminal will not be allocated because stdin is not a terminal.
Hi there
Connection to serveo.net closed by remote host.
Pseudo-terminal will not be allocated because stdin is not a terminal.
Hi there
Connection to serveo.net closed by remote host.
Pseudo-terminal will not be allocated because stdin is not a terminal.
Hi there
Connection to serveo.net closed by remote host.
Pseudo-terminal will not be allocated because stdin is not a terminal.
Hi there
Connection to serveo.net closed by remote host.
Pseudo-terminal will not be allocated because stdin is not a terminal.
Hi there
Connection to serveo.net closed by remote host.
Pseudo-terminal will not be allocated because stdin is not a terminal.
Hi there
Connection to serveo.net closed by remote host.
Pseudo-terminal will not be allocated because stdin is not a terminal.
Hi there
Connection to serveo.net closed by remote host.
Pseudo-terminal will not be allocated because stdin is not a terminal.
Hi there
Connection to serveo.net closed by remote host.
Pseudo-terminal will not be allocated because stdin is not a terminal.
Hi there
Connection to serveo.net closed by remote host.
Pseudo-terminal will not be allocated because stdin is not a terminal.
Hi there
Connection to serveo.net closed by remote host.
Pseudo-terminal will not be allocated because stdin is not a terminal.
Hi there
Connection to serveo.net closed by remote host.
Pseudo-terminal will not be allocated because stdin is not a terminal.
Hi there
Connection to serveo.net closed by remote host.
