HTTP request from 41.249.135.138 to https://pressionducapteur.serveo.net/public/vendor-47ad38d08af7dbfa26be.min.js
HTTP request from 41.249.135.138 to https://pressionducapteur.serveo.net/public/codemirror-298693927a3d2ff0c905.min.js
HTTP request from 41.249.135.138 to https://pressionducapteur.serveo.net/public/fonts/glyphicons-halflings-regular.woff2
HTTP request from 90.96.48.168 to https://pressionducapteur.serveo.net/checkValid
HTTP request from 90.96.48.168 to https://pressionducapteur.serveo.net/db/Project_Management/Roadmap_IV/%225bb336164a083707a6c248da%22
HTTP request from 90.96.48.168 to https://pressionducapteur.serveo.net/db/Project_Management/Roadmap_IV
HTTP request from 90.96.48.168 to https://pressionducapteur.serveo.net/public/css/bootstrap.min.css
HTTP request from 90.96.48.168 to https://pressionducapteur.serveo.net/public/css/style.css
HTTP request from 90.96.48.168 to https://pressionducapteur.serveo.net/public/css/theme/rubyblue.css
HTTP request from 90.96.48.168 to https://pressionducapteur.serveo.net/public/css/codemirror.css
HTTP request from 90.96.48.168 to https://pressionducapteur.serveo.net/public/img/mongo-express-logo.png
HTTP request from 90.96.48.168 to https://pressionducapteur.serveo.net/public/css/bootstrap-theme.min.css
HTTP request from 90.96.48.168 to https://pressionducapteur.serveo.net/public/vendor-47ad38d08af7dbfa26be.min.js
HTTP request from 90.96.48.168 to https://pressionducapteur.serveo.net/public/codemirror-298693927a3d2ff0c905.min.js
HTTP request from 90.96.48.168 to https://pressionducapteur.serveo.net/public/collection-de5030f1c86993d175a9.min.js
HTTP request from 90.96.48.168 to https://pressionducapteur.serveo.net/checkValid
HTTP request from 90.96.48.168 to https://pressionducapteur.serveo.net/db/Project_Management/Roadmap_IV/%225bb336164a083707a6c248da%22
HTTP request from 90.96.48.168 to https://pressionducapteur.serveo.net/db/Project_Management/Roadmap_IV
HTTP request from 90.96.48.168 to https://pressionducapteur.serveo.net/public/css/bootstrap.min.css
HTTP request from 90.96.48.168 to https://pressionducapteur.serveo.net/public/css/bootstrap-theme.min.css
HTTP request from 90.96.48.168 to https://pressionducapteur.serveo.net/public/css/style.css
HTTP request from 90.96.48.168 to https://pressionducapteur.serveo.net/public/css/codemirror.css
HTTP request from 90.96.48.168 to https://pressionducapteur.serveo.net/public/css/theme/rubyblue.css
HTTP request from 90.96.48.168 to https://pressionducapteur.serveo.net/public/img/mongo-express-logo.png
HTTP request from 90.96.48.168 to https://pressionducapteur.serveo.net/public/vendor-47ad38d08af7dbfa26be.min.js
HTTP request from 90.96.48.168 to https://pressionducapteur.serveo.net/public/collection-de5030f1c86993d175a9.min.js
HTTP request from 90.96.48.168 to https://pressionducapteur.serveo.net/public/codemirror-298693927a3d2ff0c905.min.js
HTTP request from 90.96.48.168 to https://pressionducapteur.serveo.net/public/img/gears.gif
HTTP request from 90.96.48.168 to https://pressionducapteur.serveo.net/checkValid
HTTP request from 90.96.48.168 to https://pressionducapteur.serveo.net/db/Project_Management/Roadmap_IV/%225bb338ea4a083707a6c248e4%22
HTTP request from 90.96.48.168 to https://pressionducapteur.serveo.net/db/Project_Management/Roadmap_IV
HTTP request from 90.96.48.168 to https://pressionducapteur.serveo.net/public/css/bootstrap.min.css
HTTP request from 90.96.48.168 to https://pressionducapteur.serveo.net/public/css/bootstrap-theme.min.css
HTTP request from 90.96.48.168 to https://pressionducapteur.serveo.net/public/css/theme/rubyblue.css
HTTP request from 90.96.48.168 to https://pressionducapteur.serveo.net/public/css/codemirror.css
HTTP request from 90.96.48.168 to https://pressionducapteur.serveo.net/public/css/style.css
HTTP request from 90.96.48.168 to https://pressionducapteur.serveo.net/public/img/mongo-express-logo.png
HTTP request from 90.96.48.168 to https://pressionducapteur.serveo.net/public/vendor-47ad38d08af7dbfa26be.min.js
HTTP request from 90.96.48.168 to https://pressionducapteur.serveo.net/public/codemirror-298693927a3d2ff0c905.min.js
HTTP request from 90.96.48.168 to https://pressionducapteur.serveo.net/public/collection-de5030f1c86993d175a9.min.js
HTTP request from 90.96.48.168 to https://pressionducapteur.serveo.net/public/img/gears.gif
HTTP request from 90.96.48.168 to https://pressionducapteur.serveo.net/db/Project_Management/Roadmap_IV/%25225bb340144a083707a6c248e6%2522
HTTP request from 90.96.48.168 to https://pressionducapteur.serveo.net/public/css/bootstrap.min.css
HTTP request from 90.96.48.168 to https://pressionducapteur.serveo.net/public/css/bootstrap-theme.min.css
HTTP request from 90.96.48.168 to https://pressionducapteur.serveo.net/public/css/style.css
HTTP request from 90.96.48.168 to https://pressionducapteur.serveo.net/public/css/codemirror.css
HTTP request from 90.96.48.168 to https://pressionducapteur.serveo.net/public/css/theme/rubyblue.css
HTTP request from 90.96.48.168 to https://pressionducapteur.serveo.net/public/vendor-47ad38d08af7dbfa26be.min.js
HTTP request from 90.96.48.168 to https://pressionducapteur.serveo.net/public/img/mongo-express-logo.png
HTTP request from 90.96.48.168 to https://pressionducapteur.serveo.net/public/codemirror-298693927a3d2ff0c905.min.js
HTTP request from 90.96.48.168 to https://pressionducapteur.serveo.net/public/document-14c5429f8bb0330baeef.min.js
HTTP request from 90.96.48.168 to https://pressionducapteur.serveo.net/db/Project_Management/Roadmap_IV/%25225bb344814a083707a6c248e8%2522
HTTP request from 90.96.48.168 to https://pressionducapteur.serveo.net/public/css/bootstrap.min.css
HTTP request from 90.96.48.168 to https://pressionducapteur.serveo.net/public/css/style.css
HTTP request from 90.96.48.168 to https://pressionducapteur.serveo.net/public/css/codemirror.css
HTTP request from 90.96.48.168 to https://pressionducapteur.serveo.net/public/css/bootstrap-theme.min.css
HTTP request from 90.96.48.168 to https://pressionducapteur.serveo.net/public/css/theme/rubyblue.css
HTTP request from 90.96.48.168 to https://pressionducapteur.serveo.net/public/vendor-47ad38d08af7dbfa26be.min.js
HTTP request from 90.96.48.168 to https://pressionducapteur.serveo.net/public/codemirror-298693927a3d2ff0c905.min.js
HTTP request from 90.96.48.168 to https://pressionducapteur.serveo.net/public/document-14c5429f8bb0330baeef.min.js
HTTP request from 90.96.48.168 to https://pressionducapteur.serveo.net/public/img/mongo-express-logo.png
HTTP request from 90.96.48.168 to https://pressionducapteur.serveo.net/public/img/gears.gif
HTTP request from 90.96.48.168 to https://pressionducapteur.serveo.net/db/Project_Management/Roadmap_IV/%25225bb728726b57f707aef8d26d%2522
HTTP request from 90.96.48.168 to https://pressionducapteur.serveo.net/public/css/bootstrap.min.css
HTTP request from 90.96.48.168 to https://pressionducapteur.serveo.net/public/css/bootstrap-theme.min.css
HTTP request from 90.96.48.168 to https://pressionducapteur.serveo.net/public/css/style.css
HTTP request from 90.96.48.168 to https://pressionducapteur.serveo.net/public/css/codemirror.css
HTTP request from 90.96.48.168 to https://pressionducapteur.serveo.net/public/css/theme/rubyblue.css
HTTP request from 90.96.48.168 to https://pressionducapteur.serveo.net/public/vendor-47ad38d08af7dbfa26be.min.js
HTTP request from 90.96.48.168 to https://pressionducapteur.serveo.net/public/codemirror-298693927a3d2ff0c905.min.js
HTTP request from 90.96.48.168 to https://pressionducapteur.serveo.net/public/document-14c5429f8bb0330baeef.min.js
HTTP request from 90.96.48.168 to https://pressionducapteur.serveo.net/public/img/mongo-express-logo.png
HTTP request from 90.96.48.168 to https://pressionducapteur.serveo.net/public/img/gears.gif
HTTP request from 90.96.48.168 to https://pressionducapteur.serveo.net/db/Project_Management/Roadmap_IV/%2522Total%2522
HTTP request from 90.96.48.168 to https://pressionducapteur.serveo.net/public/css/bootstrap.min.css
HTTP request from 90.96.48.168 to https://pressionducapteur.serveo.net/public/css/bootstrap-theme.min.css
HTTP request from 90.96.48.168 to https://pressionducapteur.serveo.net/public/css/style.css
HTTP request from 90.96.48.168 to https://pressionducapteur.serveo.net/public/css/codemirror.css
HTTP request from 90.96.48.168 to https://pressionducapteur.serveo.net/public/css/theme/rubyblue.css
HTTP request from 90.96.48.168 to https://pressionducapteur.serveo.net/public/vendor-47ad38d08af7dbfa26be.min.js
HTTP request from 90.96.48.168 to https://pressionducapteur.serveo.net/public/img/mongo-express-logo.png
HTTP request from 90.96.48.168 to https://pressionducapteur.serveo.net/public/document-14c5429f8bb0330baeef.min.js
HTTP request from 90.96.48.168 to https://pressionducapteur.serveo.net/public/codemirror-298693927a3d2ff0c905.min.js
HTTP request from 90.96.48.168 to https://pressionducapteur.serveo.net/checkValid
HTTP request from 90.96.48.168 to https://pressionducapteur.serveo.net/db/Project_Management/Roadmap_IV/%225bb340144a083707a6c248e6%22
HTTP request from 90.96.48.168 to https://pressionducapteur.serveo.net/db/Project_Management/Roadmap_IV
HTTP request from 90.96.48.168 to https://pressionducapteur.serveo.net/public/css/bootstrap.min.css
HTTP request from 90.96.48.168 to https://pressionducapteur.serveo.net/public/css/bootstrap-theme.min.css
HTTP request from 90.96.48.168 to https://pressionducapteur.serveo.net/public/css/style.css
HTTP request from 90.96.48.168 to https://pressionducapteur.serveo.net/public/css/codemirror.css
HTTP request from 90.96.48.168 to https://pressionducapteur.serveo.net/public/css/theme/rubyblue.css
HTTP request from 90.96.48.168 to https://pressionducapteur.serveo.net/public/img/mongo-express-logo.png
HTTP request from 90.96.48.168 to https://pressionducapteur.serveo.net/public/vendor-47ad38d08af7dbfa26be.min.js
HTTP request from 90.96.48.168 to https://pressionducapteur.serveo.net/public/codemirror-298693927a3d2ff0c905.min.js
HTTP request from 90.96.48.168 to https://pressionducapteur.serveo.net/public/collection-de5030f1c86993d175a9.min.js
HTTP request from 90.96.48.168 to https://pressionducapteur.serveo.net/checkValid
HTTP request from 90.96.48.168 to https://pressionducapteur.serveo.net/db/Project_Management/Roadmap_IV/%225bb344814a083707a6c248e8%22
HTTP request from 90.96.48.168 to https://pressionducapteur.serveo.net/db/Project_Management/Roadmap_IV
HTTP request from 90.96.48.168 to https://pressionducapteur.serveo.net/public/css/bootstrap.min.css
HTTP request from 90.96.48.168 to https://pressionducapteur.serveo.net/public/css/bootstrap-theme.min.css
HTTP request from 90.96.48.168 to https://pressionducapteur.serveo.net/public/css/style.css
HTTP request from 90.96.48.168 to https://pressionducapteur.serveo.net/public/css/codemirror.css
HTTP request from 90.96.48.168 to https://pressionducapteur.serveo.net/public/css/theme/rubyblue.css
HTTP request from 90.96.48.168 to https://pressionducapteur.serveo.net/public/img/mongo-express-logo.png
