[0mGET /public/codemirror-298693927a3d2ff0c905.min.js [36m304 [0m0.298 ms - -[0m
[0mGET /public/collection-de5030f1c86993d175a9.min.js [36m304 [0m0.319 ms - -[0m
[0mGET /public/database-d63e752d3031610834d2.min.js [36m304 [0m0.385 ms - -[0m
[0mGET /db/Project_Management/ [32m200 [0m26.063 ms - 17944[0m
[0mGET /public/css/bootstrap-theme.min.css [36m304 [0m0.404 ms - -[0m
[0mGET /public/css/bootstrap.min.css [36m304 [0m0.317 ms - -[0m
[0mGET /public/css/style.css [36m304 [0m0.281 ms - -[0m
[0mGET /public/img/mongo-express-logo.png [36m304 [0m0.418 ms - -[0m
[0mGET /public/database-d63e752d3031610834d2.min.js [36m304 [0m0.435 ms - -[0m
[0mGET /public/vendor-47ad38d08af7dbfa26be.min.js [36m304 [0m0.287 ms - -[0m
[0mGET /public/fonts/glyphicons-halflings-regular.woff2 [36m304 [0m1.200 ms - -[0m
[0mGET /public/css/codemirror.css [36m304 [0m0.398 ms - -[0m
[0mGET /public/css/theme/rubyblue.css [36m304 [0m0.310 ms - -[0m
[0mGET /public/collection-de5030f1c86993d175a9.min.js [36m304 [0m0.291 ms - -[0m
[0mGET /public/codemirror-298693927a3d2ff0c905.min.js [36m304 [0m0.290 ms - -[0m
[0mGET /db/Project_Management/Roadmap_IV [32m200 [0m99.379 ms - 548612[0m
[0mGET /public/css/bootstrap-theme.min.css [36m304 [0m0.751 ms - -[0m
[0mGET /public/css/bootstrap.min.css [36m304 [0m0.531 ms - -[0m
[0mGET /public/css/codemirror.css [36m304 [0m0.416 ms - -[0m
[0mGET /public/css/theme/rubyblue.css [36m304 [0m0.280 ms - -[0m
[0mGET /public/css/style.css [36m304 [0m0.257 ms - -[0m
[0mGET /public/img/mongo-express-logo.png [36m304 [0m0.306 ms - -[0m
[0mGET /public/fonts/glyphicons-halflings-regular.woff2 [36m304 [0m0.303 ms - -[0m
[0mGET /public/codemirror-298693927a3d2ff0c905.min.js [36m304 [0m0.330 ms - -[0m
[0mGET /public/collection-de5030f1c86993d175a9.min.js [36m304 [0m0.269 ms - -[0m
[0mGET /public/vendor-47ad38d08af7dbfa26be.min.js [36m304 [0m0.282 ms - -[0m
[0mGET /db/Project_Management/Roadmap_IV/%25225ba3ae9c9f6388079b01dc9f%2522 [32m200 [0m34.213 ms - 113735[0m
[0mGET /public/css/bootstrap.min.css [36m304 [0m0.342 ms - -[0m
[0mGET /public/css/bootstrap-theme.min.css [36m304 [0m0.310 ms - -[0m
[0mGET /public/css/style.css [36m304 [0m0.315 ms - -[0m
[0mGET /public/css/codemirror.css [36m304 [0m0.285 ms - -[0m
[0mGET /public/css/theme/rubyblue.css [36m304 [0m0.286 ms - -[0m
[0mGET /public/img/mongo-express-logo.png [36m304 [0m0.317 ms - -[0m
[0mGET /public/fonts/glyphicons-halflings-regular.woff2 [36m304 [0m0.308 ms - -[0m
[0mGET /public/vendor-47ad38d08af7dbfa26be.min.js [36m304 [0m0.314 ms - -[0m
[0mGET /public/codemirror-298693927a3d2ff0c905.min.js [36m304 [0m0.304 ms - -[0m
[0mGET /public/document-14c5429f8bb0330baeef.min.js [36m304 [0m0.288 ms - -[0m
[0mGET /public/img/gears.gif [36m304 [0m0.331 ms - -[0m
[0mGET /db/Project_Management/Roadmap_IV/%25225bb336164a083707a6c248da%2522 [32m200 [0m35.075 ms - 83100[0m
[0mGET /public/css/bootstrap.min.css [36m304 [0m0.354 ms - -[0m
[0mGET /public/css/theme/rubyblue.css [36m304 [0m0.290 ms - -[0m
[0mGET /public/css/codemirror.css [36m304 [0m0.328 ms - -[0m
[0mGET /public/css/style.css [36m304 [0m0.437 ms - -[0m
[0mGET /public/css/bootstrap-theme.min.css [36m304 [0m0.359 ms - -[0m
[0mGET /public/fonts/glyphicons-halflings-regular.woff2 [36m304 [0m0.305 ms - -[0m
[0mGET /public/vendor-47ad38d08af7dbfa26be.min.js [36m304 [0m0.334 ms - -[0m
[0mGET /public/document-14c5429f8bb0330baeef.min.js [36m304 [0m0.301 ms - -[0m
[0mGET /public/img/mongo-express-logo.png [36m304 [0m0.349 ms - -[0m
[0mGET /public/codemirror-298693927a3d2ff0c905.min.js [36m304 [0m0.345 ms - -[0m
[0mGET /public/document-14c5429f8bb0330baeef.min.js [36m304 [0m0.382 ms - -[0m
[0mGET /db/Project_Management/Roadmap_IV/%25225bb344814a083707a6c248e8%2522 [32m200 [0m30.503 ms - 81496[0m
[0mGET /public/css/bootstrap-theme.min.css [36m304 [0m0.358 ms - -[0m
[0mGET /public/css/bootstrap.min.css [36m304 [0m0.316 ms - -[0m
[0mGET /public/css/style.css [36m304 [0m0.291 ms - -[0m
[0mGET /public/css/theme/rubyblue.css [36m304 [0m0.281 ms - -[0m
[0mGET /public/css/codemirror.css [36m304 [0m0.273 ms - -[0m
[0mGET /public/img/mongo-express-logo.png [36m304 [0m0.308 ms - -[0m
[0mGET /public/vendor-47ad38d08af7dbfa26be.min.js [36m304 [0m0.302 ms - -[0m
[0mGET /public/document-14c5429f8bb0330baeef.min.js [36m304 [0m0.298 ms - -[0m
[0mGET /public/codemirror-298693927a3d2ff0c905.min.js [36m304 [0m0.294 ms - -[0m
[0mGET /public/fonts/glyphicons-halflings-regular.woff2 [36m304 [0m0.311 ms - -[0m
[0mPOST /checkValid [32m200 [0m862.759 ms - 5[0m
[0mPUT /db/Project_Management/Roadmap_IV/%225bb344814a083707a6c248e8%22 [36m302 [0m698.251 ms - 110[0m
[0mGET /db/Project_Management/Roadmap_IV [32m200 [0m108.264 ms - 548829[0m
[0mGET /public/css/bootstrap.min.css [36m304 [0m0.799 ms - -[0m
[0mGET /public/css/bootstrap-theme.min.css [36m304 [0m0.504 ms - -[0m
[0mGET /public/css/style.css [36m304 [0m0.439 ms - -[0m
[0mGET /public/css/codemirror.css [36m304 [0m0.279 ms - -[0m
[0mGET /public/css/theme/rubyblue.css [36m304 [0m0.283 ms - -[0m
[0mGET /public/img/mongo-express-logo.png [36m304 [0m0.343 ms - -[0m
[0mGET /public/fonts/glyphicons-halflings-regular.woff2 [36m304 [0m0.293 ms - -[0m
[0mGET /public/collection-de5030f1c86993d175a9.min.js [36m304 [0m0.337 ms - -[0m
[0mGET /public/vendor-47ad38d08af7dbfa26be.min.js [36m304 [0m0.311 ms - -[0m
[0mGET /public/codemirror-298693927a3d2ff0c905.min.js [36m304 [0m0.294 ms - -[0m
[0mGET /db/Project_Management/Roadmap_IV/%25225ba3ae9c9f6388079b01dc9f%2522 [32m200 [0m38.320 ms - 113735[0m
[0mGET /public/css/bootstrap-theme.min.css [36m304 [0m0.761 ms - -[0m
[0mGET /public/css/bootstrap.min.css [36m304 [0m0.329 ms - -[0m
[0mGET /public/css/style.css [36m304 [0m0.303 ms - -[0m
[0mGET /public/css/codemirror.css [36m304 [0m0.342 ms - -[0m
[0mGET /public/css/theme/rubyblue.css [36m304 [0m0.357 ms - -[0m
[0mGET /public/img/mongo-express-logo.png [36m304 [0m0.337 ms - -[0m
[0mGET /public/document-14c5429f8bb0330baeef.min.js [36m304 [0m0.334 ms - -[0m
[0mGET /public/codemirror-298693927a3d2ff0c905.min.js [36m304 [0m0.302 ms - -[0m
[0mGET /public/vendor-47ad38d08af7dbfa26be.min.js [36m304 [0m0.345 ms - -[0m
[0mGET /public/fonts/glyphicons-halflings-regular.woff2 [36m304 [0m1.098 ms - -[0m
[0mPOST /checkValid [32m200 [0m1791.853 ms - 5[0m
[0mPUT /db/Project_Management/Roadmap_IV/%225ba3ae9c9f6388079b01dc9f%22 [36m302 [0m2410.566 ms - 110[0m
[0mGET /db/Project_Management/Roadmap_IV [32m200 [0m107.160 ms - 548881[0m
[0mGET /public/css/bootstrap.min.css [36m304 [0m0.782 ms - -[0m
[0mGET /public/css/bootstrap-theme.min.css [36m304 [0m0.556 ms - -[0m
[0mGET /public/css/style.css [36m304 [0m0.435 ms - -[0m
[0mGET /public/css/theme/rubyblue.css [36m304 [0m0.306 ms - -[0m
[0mGET /public/img/mongo-express-logo.png [36m304 [0m0.287 ms - -[0m
[0mGET /public/img/gears.gif [36m304 [0m0.310 ms - -[0m
[0mGET /public/vendor-47ad38d08af7dbfa26be.min.js [36m304 [0m0.326 ms - -[0m
[0mGET /public/css/codemirror.css [36m304 [0m0.281 ms - -[0m
[0mGET /public/codemirror-298693927a3d2ff0c905.min.js [36m304 [0m0.297 ms - -[0m
[0mGET /public/collection-de5030f1c86993d175a9.min.js [36m304 [0m0.344 ms - -[0m
[0mGET /public/fonts/glyphicons-halflings-regular.woff2 [36m304 [0m0.339 ms - -[0m
[0mGET /db/Project_Management/Roadmap_IV/%25225ba3ae9c9f6388079b01dc9f%2522 [32m200 [0m31.414 ms - 115649[0m
[0mGET /public/css/theme/rubyblue.css [36m304 [0m0.341 ms - -[0m
[0mGET /public/img/mongo-express-logo.png [36m304 [0m0.293 ms - -[0m
[0mGET /public/css/bootstrap-theme.min.css [36m304 [0m0.290 ms - -[0m
[0mGET /public/css/style.css [36m304 [0m0.343 ms - -[0m
[0mGET /public/css/bootstrap.min.css [36m304 [0m0.296 ms - -[0m
[0mGET /public/css/codemirror.css [36m304 [0m0.322 ms - -[0m
[0mGET /public/document-14c5429f8bb0330baeef.min.js [36m304 [0m0.328 ms - -[0m
[0mGET /public/codemirror-298693927a3d2ff0c905.min.js [36m304 [0m0.332 ms - -[0m
[0mGET /public/vendor-47ad38d08af7dbfa26be.min.js [36m304 [0m0.302 ms - -[0m
[0mGET /public/fonts/glyphicons-halflings-regular.woff2 [36m304 [0m0.328 ms - -[0m
[0mPOST /checkValid [32m200 [0m8365.506 ms - 5[0m
[0mPOST /checkValid [32m200 [0m4354.752 ms - 5[0m
[0mPOST /checkValid [32m200 [0m8911.924 ms - 5[0m
[0mPOST /checkValid [32m200 [0m2717.672 ms - 5[0m
[0mPOST /checkValid [32m200 [0m8068.525 ms - 5[0m
[0mPOST /checkValid [32m200 [0m3235.014 ms - 5[0m
[0mPOST /checkValid [32m200 [0m10747.883 ms - 5[0m
[0mPUT /db/Project_Management/Roadmap_IV/%225ba3ae9c9f6388079b01dc9f%22 [36m302 [0m3207.302 ms - 110[0m
[0mGET /db/Project_Management/Roadmap_IV [32m200 [0m107.692 ms - 560449[0m
[0mGET /public/css/bootstrap-theme.min.css [36m304 [0m0.756 ms - -[0m
[0mGET /public/collection-de5030f1c86993d175a9.min.js [36m304 [0m0.491 ms - -[0m
[0mGET /public/vendor-47ad38d08af7dbfa26be.min.js [36m304 [0m0.428 ms - -[0m
[0mGET /public/codemirror-298693927a3d2ff0c905.min.js [36m304 [0m0.317 ms - -[0m
[0mGET /public/css/style.css [36m304 [0m0.334 ms - -[0m
[0mGET /public/css/theme/rubyblue.css [36m304 [0m0.301 ms - -[0m
[0mGET /public/css/codemirror.css [36m304 [0m0.274 ms - -[0m
[0mGET /public/css/bootstrap.min.css [36m304 [0m0.246 ms - -[0m
[0mGET /public/img/mongo-express-logo.png [36m304 [0m0.268 ms - -[0m
[0mGET /public/fonts/glyphicons-halflings-regular.woff2 [36m304 [0m0.313 ms - -[0m
[0mGET /public/index-512f467a07c538127931.min.js [36m304 [0m0.819 ms - -[0m
[0mGET /public/css/bootstrap.min.css [36m304 [0m0.626 ms - -[0m
[0mGET /public/css/bootstrap-theme.min.css [36m304 [0m0.453 ms - -[0m
[0mGET /public/vendor-47ad38d08af7dbfa26be.min.js [36m304 [0m0.330 ms - -[0m
[0mGET /public/fonts/glyphicons-halflings-regular.woff2 [36m304 [0m0.316 ms - -[0m
[0mGET / [32m200 [0m30.541 ms - 14414[0m
[0mGET /public/css/style.css [32m200 [0m1.115 ms - 1883[0m
[0mGET /public/img/mongo-express-logo.png [32m200 [0m0.654 ms - 17847[0m
[0mGET /public/index-512f467a07c538127931.min.js [36m304 [0m0.332 ms - -[0m
[0mGET /public/database-d63e752d3031610834d2.min.js [36m304 [0m1.860 ms - -[0m
[0mGET /db/Chatbot/ [32m200 [0m26.659 ms - 15837[0m
[0mGET /public/css/bootstrap-theme.min.css [36m304 [0m0.350 ms - -[0m
[0mGET /public/img/mongo-express-logo.png [36m304 [0m0.327 ms - -[0m
[0mGET /public/css/style.css [36m304 [0m0.296 ms - -[0m
[0mGET /public/css/bootstrap.min.css [36m304 [0m0.315 ms - -[0m
[0mGET /public/vendor-47ad38d08af7dbfa26be.min.js [36m304 [0m0.305 ms - -[0m
[0mGET /public/fonts/glyphicons-halflings-regular.woff2 [36m304 [0m0.371 ms - -[0m
[0mGET /db/Chatbot/Liste_exercices [32m200 [0m68.135 ms - 39254[0m
[0mGET /public/css/bootstrap-theme.min.css [36m304 [0m0.401 ms - -[0m
[0mGET /public/css/bootstrap.min.css [36m304 [0m0.343 ms - -[0m
[0mGET /public/css/theme/rubyblue.css [32m200 [0m0.537 ms - 1801[0m
[0mGET /public/css/style.css [36m304 [0m1.055 ms - -[0m
[0mGET /public/css/codemirror.css [36m304 [0m0.281 ms - -[0m
[0mGET /public/img/mongo-express-logo.png [36m304 [0m0.299 ms - -[0m
[0mGET /public/codemirror-298693927a3d2ff0c905.min.js [32m200 [0m0.512 ms - 184058[0m
[0mGET /public/vendor-47ad38d08af7dbfa26be.min.js [36m304 [0m0.323 ms - -[0m
[0mGET /public/collection-de5030f1c86993d175a9.min.js [36m304 [0m0.329 ms - -[0m
[0mGET /public/fonts/glyphicons-halflings-regular.woff2 [36m304 [0m0.372 ms - -[0m
[0mGET /db/Chatbot/Liste_exercices?skip=20&key=&value=&type=&query=&projection= [32m200 [0m66.633 ms - 39589[0m
[0mGET /public/css/style.css [36m304 [0m0.423 ms - -[0m
[0mGET /public/css/codemirror.css [36m304 [0m0.324 ms - -[0m
[0mGET /public/css/bootstrap.min.css [36m304 [0m0.320 ms - -[0m
[0mGET /public/css/theme/rubyblue.css [36m304 [0m0.343 ms - -[0m
[0mGET /public/img/mongo-express-logo.png [36m304 [0m0.300 ms - -[0m
[0mGET /public/css/bootstrap-theme.min.css [36m304 [0m0.290 ms - -[0m
[0mGET /public/codemirror-298693927a3d2ff0c905.min.js [36m304 [0m0.297 ms - -[0m
[0mGET /public/collection-de5030f1c86993d175a9.min.js [36m304 [0m0.293 ms - -[0m
[0mGET /public/vendor-47ad38d08af7dbfa26be.min.js [36m304 [0m0.278 ms - -[0m
[0mGET /public/fonts/glyphicons-halflings-regular.woff2 [36m304 [0m0.331 ms - -[0m
[0mGET /db/Chatbot/Liste_exercices?skip=40&key=&value=&type=&query=&projection= [32m200 [0m60.575 ms - 40062[0m
[0mGET /public/css/bootstrap-theme.min.css [36m304 [0m0.413 ms - -[0m
[0mGET /public/css/bootstrap.min.css [36m304 [0m0.340 ms - -[0m
[0mGET /public/css/style.css [36m304 [0m0.411 ms - -[0m
[0mGET /public/css/theme/rubyblue.css [36m304 [0m1.754 ms - -[0m
[0mGET /public/css/codemirror.css [36m304 [0m0.287 ms - -[0m
[0mGET /public/img/mongo-express-logo.png [36m304 [0m0.279 ms - -[0m
[0mGET /public/vendor-47ad38d08af7dbfa26be.min.js [36m304 [0m0.328 ms - -[0m
[0mGET /public/codemirror-298693927a3d2ff0c905.min.js [36m304 [0m0.324 ms - -[0m
[0mGET /public/collection-de5030f1c86993d175a9.min.js [36m304 [0m0.291 ms - -[0m
[0mGET /public/fonts/glyphicons-halflings-regular.woff2 [36m304 [0m0.270 ms - -[0m
[0mGET /db/Chatbot/Liste_exercices?skip=60&key=&value=&type=&query=&projection= [32m200 [0m61.059 ms - 39386[0m
[0mGET /public/css/bootstrap-theme.min.css [36m304 [0m0.748 ms - -[0m
[0mGET /public/css/bootstrap.min.css [36m304 [0m0.494 ms - -[0m
[0mGET /public/css/style.css [36m304 [0m0.421 ms - -[0m
[0mGET /public/css/codemirror.css [36m304 [0m0.275 ms - -[0m
[0mGET /public/css/theme/rubyblue.css [36m304 [0m0.276 ms - -[0m
[0mGET /public/img/mongo-express-logo.png [36m304 [0m0.322 ms - -[0m
[0mGET /public/codemirror-298693927a3d2ff0c905.min.js [36m304 [0m0.305 ms - -[0m
[0mGET /public/vendor-47ad38d08af7dbfa26be.min.js [36m304 [0m0.292 ms - -[0m
[0mGET /public/collection-de5030f1c86993d175a9.min.js [36m304 [0m0.288 ms - -[0m
[0mGET /public/fonts/glyphicons-halflings-regular.woff2 [36m304 [0m0.334 ms - -[0m
[0mGET /db/Chatbot/Liste_exercices?skip=80&key=&value=&type=&query=&projection= [32m200 [0m70.100 ms - 39894[0m
[0mGET /public/css/bootstrap-theme.min.css [36m304 [0m0.400 ms - -[0m
[0mGET /public/css/bootstrap.min.css [36m304 [0m0.325 ms - -[0m
[0mGET /public/css/style.css [36m304 [0m0.305 ms - -[0m
[0mGET /public/css/codemirror.css [36m304 [0m0.292 ms - -[0m
[0mGET /public/css/theme/rubyblue.css [36m304 [0m0.294 ms - -[0m
[0mGET /public/img/mongo-express-logo.png [36m304 [0m0.365 ms - -[0m
[0mGET /public/fonts/glyphicons-halflings-regular.woff2 [36m304 [0m0.347 ms - -[0m
[0mGET /public/vendor-47ad38d08af7dbfa26be.min.js [36m304 [0m0.324 ms - -[0m
[0mGET /public/collection-de5030f1c86993d175a9.min.js [36m304 [0m0.310 ms - -[0m
[0mGET /public/codemirror-298693927a3d2ff0c905.min.js [36m304 [0m0.306 ms - -[0m
[0mGET /db/Chatbot/Liste_exercices?skip=100&key=&value=&type=&query=&projection= [32m200 [0m66.145 ms - 39219[0m
[0mGET /public/css/bootstrap-theme.min.css [36m304 [0m0.405 ms - -[0m
[0mGET /public/css/bootstrap.min.css [36m304 [0m0.325 ms - -[0m
[0mGET /public/css/style.css [36m304 [0m0.310 ms - -[0m
[0mGET /public/css/codemirror.css [36m304 [0m0.284 ms - -[0m
[0mGET /public/css/theme/rubyblue.css [36m304 [0m0.311 ms - -[0m
[0mGET /public/img/mongo-express-logo.png [36m304 [0m0.369 ms - -[0m
[0mGET /public/vendor-47ad38d08af7dbfa26be.min.js [36m304 [0m0.362 ms - -[0m
[0mGET /public/codemirror-298693927a3d2ff0c905.min.js [36m304 [0m0.324 ms - -[0m
[0mGET /public/collection-de5030f1c86993d175a9.min.js [36m304 [0m0.305 ms - -[0m
[0mGET /public/fonts/glyphicons-halflings-regular.woff2 [36m304 [0m0.359 ms - -[0m
[0mGET /db/Chatbot/Liste_exercices?skip=120&key=&value=&type=&query=&projection= [32m200 [0m60.106 ms - 27369[0m
[0mGET /public/css/style.css [36m304 [0m0.325 ms - -[0m
[0mGET /public/css/bootstrap.min.css [36m304 [0m0.326 ms - -[0m
[0mGET /public/css/bootstrap-theme.min.css [36m304 [0m0.307 ms - -[0m
[0mGET /public/img/mongo-express-logo.png [36m304 [0m0.289 ms - -[0m
[0mGET /public/css/codemirror.css [36m304 [0m0.290 ms - -[0m
[0mGET /public/css/theme/rubyblue.css [36m304 [0m0.323 ms - -[0m
[0mGET /public/fonts/glyphicons-halflings-regular.woff2 [36m304 [0m0.367 ms - -[0m
[0mGET /public/vendor-47ad38d08af7dbfa26be.min.js [36m304 [0m0.306 ms - -[0m
[0mGET /public/collection-de5030f1c86993d175a9.min.js [36m304 [0m0.290 ms - -[0m
[0mGET /public/codemirror-298693927a3d2ff0c905.min.js [36m304 [0m0.286 ms - -[0m
[0mDELETE /db/Chatbot/Liste_exercices/%225be483f7d66b3d4ad7ef4c49%22?skip=120&key=&value=&type=&query=&projection= [36m302 [0m9.525 ms - 230[0m
[0mGET /db/Chatbot/Liste_exercices?skip=120&key=&value=&type=&query=&projection= [32m200 [0m59.290 ms - 25914[0m
[0mGET /public/css/bootstrap.min.css [36m304 [0m0.346 ms - -[0m
[0mGET /public/css/bootstrap-theme.min.css [36m304 [0m0.312 ms - -[0m
[0mGET /public/css/style.css [36m304 [0m0.284 ms - -[0m
[0mGET /public/css/codemirror.css [36m304 [0m0.288 ms - -[0m
[0mGET /public/css/theme/rubyblue.css [36m304 [0m0.292 ms - -[0m
[0mGET /public/img/mongo-express-logo.png [36m304 [0m0.295 ms - -[0m
[0mGET /public/codemirror-298693927a3d2ff0c905.min.js [36m304 [0m0.305 ms - -[0m
[0mGET /public/vendor-47ad38d08af7dbfa26be.min.js [36m304 [0m0.281 ms - -[0m
[0mGET /public/collection-de5030f1c86993d175a9.min.js [36m304 [0m0.310 ms - -[0m
[0mGET /public/fonts/glyphicons-halflings-regular.woff2 [36m304 [0m0.350 ms - -[0m
[0mDELETE /db/Chatbot/Liste_exercices/%225be48320d66b3d4906647f15%22?skip=120&key=&value=&type=&query=&projection= [36m302 [0m8.763 ms - 230[0m
[0mGET /db/Chatbot/Liste_exercices?skip=120&key=&value=&type=&query=&projection= [32m200 [0m60.251 ms - 24278[0m
[0mGET /public/css/bootstrap-theme.min.css [36m304 [0m0.378 ms - -[0m
[0mGET /public/css/bootstrap.min.css [36m304 [0m0.281 ms - -[0m
[0mGET /public/css/style.css [36m304 [0m0.279 ms - -[0m
[0mGET /public/css/codemirror.css [36m304 [0m0.278 ms - -[0m
[0mGET /public/css/theme/rubyblue.css [36m304 [0m0.275 ms - -[0m
[0mGET /public/img/mongo-express-logo.png [36m304 [0m0.305 ms - -[0m
[0mGET /public/collection-de5030f1c86993d175a9.min.js [36m304 [0m0.283 ms - -[0m
[0mGET /public/vendor-47ad38d08af7dbfa26be.min.js [36m304 [0m0.283 ms - -[0m
[0mGET /public/codemirror-298693927a3d2ff0c905.min.js [36m304 [0m0.275 ms - -[0m
[0mGET /public/fonts/glyphicons-halflings-regular.woff2 [36m304 [0m0.306 ms - -[0m
[0mDELETE /db/Chatbot/Liste_exercices/%225be4827ed66b3d4655400663%22?skip=120&key=&value=&type=&query=&projection= [36m302 [0m9.055 ms - 230[0m
[0mGET /db/Chatbot/Liste_exercices?skip=120&key=&value=&type=&query=&projection= [32m200 [0m54.080 ms - 18237[0m
[0mGET /public/css/bootstrap-theme.min.css [36m304 [0m0.775 ms - -[0m
[0mGET /public/css/bootstrap.min.css [36m304 [0m0.483 ms - -[0m
[0mGET /public/css/style.css [36m304 [0m0.380 ms - -[0m
[0mGET /public/css/theme/rubyblue.css [36m304 [0m0.276 ms - -[0m
[0mGET /public/img/mongo-express-logo.png [36m304 [0m0.248 ms - -[0m
[0mGET /public/css/codemirror.css [36m304 [0m0.234 ms - -[0m
[0mGET /public/collection-de5030f1c86993d175a9.min.js [36m304 [0m0.280 ms - -[0m
[0mGET /public/vendor-47ad38d08af7dbfa26be.min.js [36m304 [0m0.254 ms - -[0m
[0mGET /public/codemirror-298693927a3d2ff0c905.min.js [36m304 [0m0.244 ms - -[0m
[0mGET /public/fonts/glyphicons-halflings-regular.woff2 [36m304 [0m0.304 ms - -[0m
[0mGET /db/Chatbot/Liste_exercices [32m200 [0m69.045 ms - 39254[0m
[0mGET /public/css/bootstrap-theme.min.css [36m304 [0m0.397 ms - -[0m
[0mGET /public/css/bootstrap.min.css [36m304 [0m0.297 ms - -[0m
[0mGET /public/css/style.css [36m304 [0m0.316 ms - -[0m
[0mGET /public/css/codemirror.css [36m304 [0m1.124 ms - -[0m
[0mGET /public/css/theme/rubyblue.css [36m304 [0m0.302 ms - -[0m
[0mGET /public/img/mongo-express-logo.png [36m304 [0m0.342 ms - -[0m
[0mGET /public/collection-de5030f1c86993d175a9.min.js [36m304 [0m0.300 ms - -[0m
[0mGET /public/vendor-47ad38d08af7dbfa26be.min.js [36m304 [0m0.299 ms - -[0m
[0mGET /public/codemirror-298693927a3d2ff0c905.min.js [36m304 [0m0.254 ms - -[0m
[0mGET /public/fonts/glyphicons-halflings-regular.woff2 [36m304 [0m0.286 ms - -[0m
[0mGET /db/Chatbot/Liste_exercices/%25225b96b85cd66b3d477cbc659b%2522 [32m200 [0m20.489 ms - 7315[0m
[0mGET /public/css/bootstrap.min.css [36m304 [0m0.387 ms - -[0m
[0mGET /public/css/style.css [36m304 [0m0.324 ms - -[0m
[0mGET /public/css/bootstrap-theme.min.css [36m304 [0m0.991 ms - -[0m
[0mGET /public/css/codemirror.css [36m304 [0m0.305 ms - -[0m
[0mGET /public/img/mongo-express-logo.png [36m304 [0m0.303 ms - -[0m
[0mGET /public/css/theme/rubyblue.css [36m304 [0m0.295 ms - -[0m
[0mGET /public/vendor-47ad38d08af7dbfa26be.min.js [36m304 [0m0.272 ms - -[0m
[0mGET /public/codemirror-298693927a3d2ff0c905.min.js [36m304 [0m0.272 ms - -[0m
[0mGET /public/document-14c5429f8bb0330baeef.min.js [36m304 [0m0.275 ms - -[0m
[0mGET /public/fonts/glyphicons-halflings-regular.woff2 [36m304 [0m0.342 ms - -[0m
[0mGET /public/css/style.css [36m304 [0m0.367 ms - -[0m
[0mGET /public/vendor-47ad38d08af7dbfa26be.min.js [36m304 [0m0.319 ms - -[0m
[0mGET /public/css/bootstrap-theme.min.css [36m304 [0m0.367 ms - -[0m
[0mGET /public/index-512f467a07c538127931.min.js [36m304 [0m0.315 ms - -[0m
[0mGET /public/css/bootstrap.min.css [36m304 [0m0.309 ms - -[0m
[0mGET /public/fonts/glyphicons-halflings-regular.woff2 [36m304 [0m0.321 ms - -[0m
[0mGET /public/img/mongo-express-logo.png [36m304 [0m0.285 ms - -[0m
[0mGET / [32m200 [0m24.261 ms - 14416[0m
[0mGET /public/css/bootstrap.min.css [36m304 [0m0.370 ms - -[0m
[0mGET /public/css/bootstrap-theme.min.css [36m304 [0m0.299 ms - -[0m
[0mGET /public/css/style.css [36m304 [0m0.297 ms - -[0m
[0mGET /public/vendor-47ad38d08af7dbfa26be.min.js [36m304 [0m0.259 ms - -[0m
[0mGET /public/index-512f467a07c538127931.min.js [36m304 [0m0.316 ms - -[0m
[0mGET /public/img/mongo-express-logo.png [36m304 [0m1.063 ms - -[0m
[0mGET /public/img/gears.gif [36m304 [0m0.303 ms - -[0m
[0mGET /public/fonts/glyphicons-halflings-regular.woff2 [36m304 [0m0.323 ms - -[0m
[0mGET /db/Chatbot/ [32m200 [0m23.671 ms - 15837[0m
[0mGET /public/css/bootstrap.min.css [36m304 [0m0.374 ms - -[0m
[0mGET /public/css/bootstrap-theme.min.css [36m304 [0m0.573 ms - -[0m
[0mGET /public/css/style.css [36m304 [0m0.546 ms - -[0m
[0mGET /public/vendor-47ad38d08af7dbfa26be.min.js [36m304 [0m0.297 ms - -[0m
[0mGET /public/database-d63e752d3031610834d2.min.js [36m304 [0m0.546 ms - -[0m
[0mGET /public/img/mongo-express-logo.png [36m304 [0m0.859 ms - -[0m
[0mGET /public/img/gears.gif [36m304 [0m0.533 ms - -[0m
[0mGET /public/fonts/glyphicons-halflings-regular.woff2 [36m304 [0m0.269 ms - -[0m
[0mGET /db/Chatbot/User_diags [32m200 [0m82.843 ms - 192969[0m
[0mGET /public/css/style.css [36m304 [0m0.794 ms - -[0m
[0mGET /public/css/bootstrap.min.css [36m304 [0m0.752 ms - -[0m
[0mGET /public/css/codemirror.css [36m304 [0m0.725 ms - -[0m
[0mGET /public/css/bootstrap-theme.min.css [36m304 [0m0.241 ms - -[0m
[0mGET /public/css/theme/rubyblue.css [36m304 [0m0.283 ms - -[0m
[0mGET /public/img/mongo-express-logo.png [36m304 [0m0.269 ms - -[0m
[0mGET /public/img/gears.gif [36m304 [0m0.267 ms - -[0m
[0mGET /public/fonts/glyphicons-halflings-regular.woff2 [36m304 [0m0.270 ms - -[0m
[0mGET /public/vendor-47ad38d08af7dbfa26be.min.js [36m304 [0m0.978 ms - -[0m
[0mGET /public/codemirror-298693927a3d2ff0c905.min.js [36m304 [0m0.951 ms - -[0m
[0mGET /public/collection-de5030f1c86993d175a9.min.js [36m304 [0m0.889 ms - -[0m
[0mGET /db/Chatbot/User_diags/%25225bdf38dcd66b3d5d31edde58%2522 [32m200 [0m18.713 ms - 17857[0m
[0mGET /db/Chatbot/User_diags/%25225bdf38dcd66b3d5d31edde58%2522 [36m304 [0m18.926 ms - -[0m
[0mGET /public/css/codemirror.css [32m200 [0m2.899 ms - 8542[0m
[0mGET /public/css/style.css [32m200 [0m3.032 ms - 1883[0m
[0mGET /public/css/theme/rubyblue.css [32m200 [0m3.002 ms - 1801[0m
[0mGET /public/css/bootstrap-theme.min.css [32m200 [0m2.969 ms - 23409[0m
[0mGET /public/css/bootstrap.min.css [32m200 [0m2.977 ms - 121200[0m
[0mGET /public/vendor-47ad38d08af7dbfa26be.min.js [32m200 [0m0.820 ms - 126314[0m
[0mGET /public/img/mongo-express-logo.png [32m200 [0m2.199 ms - 17847[0m
[0mGET /public/img/gears.gif [32m200 [0m1.990 ms - 50281[0m
[0mGET /public/document-14c5429f8bb0330baeef.min.js [32m200 [0m2.209 ms - 1607[0m
[0mGET /public/codemirror-298693927a3d2ff0c905.min.js [32m200 [0m1.958 ms - 184058[0m
[0mGET /public/fonts/glyphicons-halflings-regular.woff2 [36m304 [0m0.305 ms - -[0m
[0mGET /db/Project_Management/ [32m200 [0m22.122 ms - 17944[0m
[0mGET /public/css/bootstrap-theme.min.css [36m304 [0m1.287 ms - -[0m
[0mGET /public/css/bootstrap.min.css [36m304 [0m1.318 ms - -[0m
[0mGET /public/img/mongo-express-logo.png [36m304 [0m1.458 ms - -[0m
[0mGET /public/css/style.css [36m304 [0m1.591 ms - -[0m
[0mGET /public/img/gears.gif [36m304 [0m0.326 ms - -[0m
[0mGET /public/vendor-47ad38d08af7dbfa26be.min.js [36m304 [0m0.274 ms - -[0m
[0mGET /public/database-d63e752d3031610834d2.min.js [36m304 [0m0.704 ms - -[0m
[0mGET /public/fonts/glyphicons-halflings-regular.woff2 [36m304 [0m0.259 ms - -[0m
[0mGET /db/Project_Management/Roadmap_IV [32m200 [0m108.747 ms - 564124[0m
[0mGET /public/css/codemirror.css [36m304 [0m1.649 ms - -[0m
[0mGET /public/css/style.css [36m304 [0m1.677 ms - -[0m
[0mGET /public/css/bootstrap.min.css [36m304 [0m1.721 ms - -[0m
[0mGET /public/css/theme/rubyblue.css [36m304 [0m1.731 ms - -[0m
[0mGET /public/css/bootstrap-theme.min.css [36m304 [0m1.833 ms - -[0m
[0mGET /public/img/gears.gif [36m304 [0m0.553 ms - -[0m
[0mGET /public/img/mongo-express-logo.png [36m304 [0m0.642 ms - -[0m
[0mGET /public/fonts/glyphicons-halflings-regular.woff2 [36m304 [0m0.285 ms - -[0m
[0mGET /public/codemirror-298693927a3d2ff0c905.min.js [36m304 [0m0.578 ms - -[0m
[0mGET /public/vendor-47ad38d08af7dbfa26be.min.js [36m304 [0m0.609 ms - -[0m
[0mGET /public/collection-de5030f1c86993d175a9.min.js [36m304 [0m0.249 ms - -[0m
[0mGET /db/Project_Management/Roadmap_IV/%25225ba3ae9c9f6388079b01dc9f%2522 [32m200 [0m30.651 ms - 116312[0m
[0mGET /public/css/bootstrap-theme.min.css [36m304 [0m1.440 ms - -[0m
[0mGET /public/css/style.css [36m304 [0m1.492 ms - -[0m
[0mGET /public/css/codemirror.css [36m304 [0m1.650 ms - -[0m
[0mGET /public/css/theme/rubyblue.css [36m304 [0m2.123 ms - -[0m
[0mGET /public/css/bootstrap.min.css [36m304 [0m0.636 ms - -[0m
[0mGET /public/img/mongo-express-logo.png [36m304 [0m0.315 ms - -[0m
[0mGET /public/img/gears.gif [36m304 [0m0.294 ms - -[0m
[0mGET /public/fonts/glyphicons-halflings-regular.woff2 [36m304 [0m0.279 ms - -[0m
[0mGET /public/codemirror-298693927a3d2ff0c905.min.js [36m304 [0m0.881 ms - -[0m
[0mGET /public/document-14c5429f8bb0330baeef.min.js [36m304 [0m0.900 ms - -[0m
[0mGET /public/vendor-47ad38d08af7dbfa26be.min.js [36m304 [0m0.999 ms - -[0m
[0mGET /public/css/codemirror.css [36m304 [0m0.838 ms - -[0m
[0mGET /public/codemirror-298693927a3d2ff0c905.min.js [36m304 [0m0.505 ms - -[0m
[0mGET /public/css/bootstrap-theme.min.css [32m200 [0m1.072 ms - 23409[0m
[0mGET /public/css/theme/rubyblue.css [36m304 [0m0.360 ms - -[0m
[0mGET /public/collection-de5030f1c86993d175a9.min.js [32m200 [0m0.680 ms - 9946[0m
[0mGET /public/css/theme/rubyblue.css [36m304 [0m0.358 ms - -[0m
[0mGET /public/collection-de5030f1c86993d175a9.min.js [36m304 [0m0.308 ms - -[0m
[0mGET /public/css/codemirror.css [36m304 [0m0.290 ms - -[0m
[0mGET /public/codemirror-298693927a3d2ff0c905.min.js [36m304 [0m0.295 ms - -[0m
[0mGET /public/database-d63e752d3031610834d2.min.js [36m304 [0m0.352 ms - -[0m
[0mGET /db/Network/ [32m200 [0m22.300 ms - 18830[0m
[0mGET /public/css/bootstrap-theme.min.css [36m304 [0m0.341 ms - -[0m
[0mGET /public/css/bootstrap.min.css [36m304 [0m0.341 ms - -[0m
[0mGET /public/img/mongo-express-logo.png [36m304 [0m0.305 ms - -[0m
[0mGET /public/css/style.css [36m304 [0m0.281 ms - -[0m
[0mGET /public/vendor-47ad38d08af7dbfa26be.min.js [36m304 [0m0.286 ms - -[0m
[0mGET /public/fonts/glyphicons-halflings-regular.woff2 [36m304 [0m0.343 ms - -[0m
[0mGET /db/Network/B2B [32m200 [0m67.001 ms - 54295[0m
[0mGET /public/css/bootstrap-theme.min.css [36m304 [0m0.347 ms - -[0m
[0mGET /public/css/style.css [36m304 [0m0.318 ms - -[0m
[0mGET /public/css/bootstrap.min.css [36m304 [0m0.287 ms - -[0m
[0mGET /public/css/codemirror.css [36m304 [0m0.280 ms - -[0m
[0mGET /public/css/theme/rubyblue.css [36m304 [0m0.284 ms - -[0m
[0mGET /public/img/mongo-express-logo.png [36m304 [0m0.283 ms - -[0m
[0mGET /public/collection-de5030f1c86993d175a9.min.js [36m304 [0m0.329 ms - -[0m
[0mGET /public/vendor-47ad38d08af7dbfa26be.min.js [36m304 [0m0.302 ms - -[0m
[0mGET /public/codemirror-298693927a3d2ff0c905.min.js [36m304 [0m0.306 ms - -[0m
[0mGET /public/fonts/glyphicons-halflings-regular.woff2 [36m304 [0m0.316 ms - -[0m
[0mGET /db/Network/B2B?skip=10&key=&value=&type=&query=&projection= [32m200 [0m63.347 ms - 52162[0m
[0mGET /public/css/bootstrap-theme.min.css [36m304 [0m0.319 ms - -[0m
[0mGET /public/css/bootstrap.min.css [36m304 [0m0.337 ms - -[0m
[0mGET /public/css/style.css [36m304 [0m0.275 ms - -[0m
[0mGET /public/css/theme/rubyblue.css [36m304 [0m0.266 ms - -[0m
[0mGET /public/img/mongo-express-logo.png [36m304 [0m0.268 ms - -[0m
[0mGET /public/css/codemirror.css [36m304 [0m0.261 ms - -[0m
[0mGET /public/collection-de5030f1c86993d175a9.min.js [36m304 [0m0.311 ms - -[0m
[0mGET /public/vendor-47ad38d08af7dbfa26be.min.js [36m304 [0m0.394 ms - -[0m
[0mGET /public/codemirror-298693927a3d2ff0c905.min.js [36m304 [0m0.286 ms - -[0m
[0mGET /public/fonts/glyphicons-halflings-regular.woff2 [36m304 [0m1.199 ms - -[0m
[0mGET /db/Network/B2B/%25225bc5c495220b9507baae50d1%2522 [36m304 [0m18.607 ms - -[0m
[0mGET /public/css/bootstrap.min.css [36m304 [0m0.354 ms - -[0m
[0mGET /public/css/bootstrap-theme.min.css [36m304 [0m0.316 ms - -[0m
[0mGET /public/css/style.css [36m304 [0m0.275 ms - -[0m
[0mGET /public/css/codemirror.css [36m304 [0m0.281 ms - -[0m
[0mGET /public/css/theme/rubyblue.css [36m304 [0m0.279 ms - -[0m
[0mGET /public/document-14c5429f8bb0330baeef.min.js [32m200 [0m0.532 ms - 1607[0m
[0mGET /public/vendor-47ad38d08af7dbfa26be.min.js [36m304 [0m0.264 ms - -[0m
[0mGET /public/codemirror-298693927a3d2ff0c905.min.js [36m304 [0m0.259 ms - -[0m
[0mGET /public/img/mongo-express-logo.png [36m304 [0m0.268 ms - -[0m
[0mGET /public/fonts/glyphicons-halflings-regular.woff2 [36m304 [0m0.300 ms - -[0m
[0mPOST /checkValid [32m200 [0m6.473 ms - 5[0m
[0mPUT /db/Network/B2B/%225bc5c495220b9507baae50d1%22 [36m302 [0m9.196 ms - 74[0m
[0mGET /db/Network/B2B [32m200 [0m62.453 ms - 54461[0m
[0mGET /public/css/bootstrap-theme.min.css [36m304 [0m1.086 ms - -[0m
[0mGET /public/css/bootstrap.min.css [36m304 [0m0.267 ms - -[0m
[0mGET /public/css/style.css [36m304 [0m0.262 ms - -[0m
[0mGET /public/css/theme/rubyblue.css [36m304 [0m1.046 ms - -[0m
[0mGET /public/css/codemirror.css [36m304 [0m1.026 ms - -[0m
[0mGET /public/img/mongo-express-logo.png [36m304 [0m0.924 ms - -[0m
[0mGET /public/vendor-47ad38d08af7dbfa26be.min.js [36m304 [0m0.353 ms - -[0m
[0mGET /public/collection-de5030f1c86993d175a9.min.js [36m304 [0m0.306 ms - -[0m
[0mGET /public/codemirror-298693927a3d2ff0c905.min.js [36m304 [0m0.276 ms - -[0m
[0mGET /public/fonts/glyphicons-halflings-regular.woff2 [36m304 [0m0.289 ms - -[0m
[0mGET /db/Network/B2B/%25225bc4b1f9220b9507baae50a1%2522 [32m200 [0m20.453 ms - 7847[0m
[0mGET /public/css/bootstrap-theme.min.css [36m304 [0m1.132 ms - -[0m
[0mGET /public/css/bootstrap.min.css [36m304 [0m0.293 ms - -[0m
[0mGET /public/css/style.css [36m304 [0m0.278 ms - -[0m
[0mGET /public/css/theme/rubyblue.css [36m304 [0m0.348 ms - -[0m
[0mGET /public/css/codemirror.css [36m304 [0m0.275 ms - -[0m
[0mGET /public/img/mongo-express-logo.png [36m304 [0m0.286 ms - -[0m
[0mGET /public/vendor-47ad38d08af7dbfa26be.min.js [36m304 [0m0.298 ms - -[0m
[0mGET /public/codemirror-298693927a3d2ff0c905.min.js [36m304 [0m0.336 ms - -[0m
[0mGET /public/document-14c5429f8bb0330baeef.min.js [36m304 [0m0.259 ms - -[0m
[0mGET /public/fonts/glyphicons-halflings-regular.woff2 [36m304 [0m0.291 ms - -[0m
[0mPOST /checkValid [32m200 [0m9.219 ms - 7[0m
[0mPOST /checkValid [32m200 [0m6.174 ms - 5[0m
[0mPUT /db/Network/B2B/%225bc4b1f9220b9507baae50a1%22 [36m302 [0m9.978 ms - 74[0m
[0mGET /db/Network/B2B [32m200 [0m68.676 ms - 54461[0m
[0mGET /public/css/bootstrap-theme.min.css [36m304 [0m0.957 ms - -[0m
[0mGET /public/css/bootstrap.min.css [36m304 [0m0.504 ms - -[0m
[0mGET /public/css/style.css [36m304 [0m0.446 ms - -[0m
[0mGET /public/css/codemirror.css [36m304 [0m0.312 ms - -[0m
[0mGET /public/css/theme/rubyblue.css [36m304 [0m0.387 ms - -[0m
[0mGET /public/img/mongo-express-logo.png [36m304 [0m0.288 ms - -[0m
[0mGET /public/vendor-47ad38d08af7dbfa26be.min.js [36m304 [0m0.356 ms - -[0m
[0mGET /public/collection-de5030f1c86993d175a9.min.js [36m304 [0m0.309 ms - -[0m
[0mGET /public/codemirror-298693927a3d2ff0c905.min.js [36m304 [0m0.330 ms - -[0m
[0mGET /public/fonts/glyphicons-halflings-regular.woff2 [36m304 [0m0.315 ms - -[0m
[0mGET /db/Project_Management/ [32m200 [0m26.898 ms - 17944[0m
[0mGET /public/css/bootstrap.min.css [36m304 [0m0.320 ms - -[0m
[0mGET /public/css/bootstrap-theme.min.css [36m304 [0m0.938 ms - -[0m
[0mGET /public/vendor-47ad38d08af7dbfa26be.min.js [36m304 [0m0.926 ms - -[0m
[0mGET /public/css/style.css [36m304 [0m0.845 ms - -[0m
[0mGET /public/img/mongo-express-logo.png [36m304 [0m0.294 ms - -[0m
[0mGET /public/img/gears.gif [36m304 [0m1.212 ms - -[0m
[0mGET /public/database-d63e752d3031610834d2.min.js [36m304 [0m0.233 ms - -[0m
[0mGET /public/fonts/glyphicons-halflings-regular.woff2 [36m304 [0m0.352 ms - -[0m
[0mGET /db/Project_Management/Roadmap_IV [32m200 [0m107.628 ms - 571806[0m
[0mGET /public/css/bootstrap-theme.min.css [36m304 [0m2.314 ms - -[0m
[0mGET /public/css/bootstrap.min.css [36m304 [0m2.317 ms - -[0m
[0mGET /public/css/style.css [36m304 [0m0.601 ms - -[0m
[0mGET /public/css/theme/rubyblue.css [36m304 [0m0.593 ms - -[0m
[0mGET /public/css/codemirror.css [36m304 [0m0.297 ms - -[0m
[0mGET /public/img/mongo-express-logo.png [36m304 [0m0.317 ms - -[0m
[0mGET /public/img/gears.gif [36m304 [0m0.312 ms - -[0m
[0mGET /public/fonts/glyphicons-halflings-regular.woff2 [36m304 [0m0.300 ms - -[0m
[0mGET /public/vendor-47ad38d08af7dbfa26be.min.js [36m304 [0m0.736 ms - -[0m
[0mGET /public/codemirror-298693927a3d2ff0c905.min.js [32m200 [0m1.398 ms - 184058[0m
[0mGET /public/collection-de5030f1c86993d175a9.min.js [36m304 [0m0.300 ms - -[0m
[0mGET /db/Project_Management/Roadmap_IV/%25225ba3ae9c9f6388079b01dc9f%2522 [32m200 [0m32.603 ms - 117548[0m
[0mGET /public/css/codemirror.css [36m304 [0m1.599 ms - -[0m
[0mGET /public/css/theme/rubyblue.css [36m304 [0m1.543 ms - -[0m
[0mGET /public/css/bootstrap.min.css [36m304 [0m1.481 ms - -[0m
[0mGET /public/css/bootstrap-theme.min.css [36m304 [0m1.423 ms - -[0m
[0mGET /public/css/style.css [36m304 [0m1.387 ms - -[0m
[0mGET /public/img/mongo-express-logo.png [36m304 [0m0.311 ms - -[0m
[0mGET /public/img/gears.gif [36m304 [0m0.311 ms - -[0m
[0mGET /public/fonts/glyphicons-halflings-regular.woff2 [36m304 [0m0.298 ms - -[0m
[0mGET /public/codemirror-298693927a3d2ff0c905.min.js [36m304 [0m0.931 ms - -[0m
[0mGET /public/document-14c5429f8bb0330baeef.min.js [36m304 [0m0.866 ms - -[0m
[0mGET /public/vendor-47ad38d08af7dbfa26be.min.js [36m304 [0m0.813 ms - -[0m
[0mPOST /checkValid [32m200 [0m98.698 ms - 5[0m
[0mPUT /db/Project_Management/Roadmap_IV/%225ba3ae9c9f6388079b01dc9f%22 [36m302 [0m125.577 ms - 110[0m
[0mGET /db/Project_Management/Roadmap_IV [32m200 [0m104.284 ms - 571678[0m
[0mGET /public/css/theme/rubyblue.css [36m304 [0m2.284 ms - -[0m
[0mGET /public/css/codemirror.css [36m304 [0m2.202 ms - -[0m
[0mGET /public/css/bootstrap.min.css [36m304 [0m2.163 ms - -[0m
[0mGET /public/css/style.css [36m304 [0m2.143 ms - -[0m
[0mGET /public/css/bootstrap-theme.min.css [36m304 [0m2.234 ms - -[0m
[0mGET /public/img/mongo-express-logo.png [36m304 [0m0.320 ms - -[0m
[0mGET /public/img/gears.gif [36m304 [0m0.300 ms - -[0m
[0mGET /public/fonts/glyphicons-halflings-regular.woff2 [36m304 [0m0.303 ms - -[0m
[0mGET /public/img/gears.gif [32m200 [0m1.098 ms - 50281[0m
[0mGET / [32m200 [0m31.784 ms - 14414[0m
[0mGET /public/css/bootstrap.min.css [32m200 [0m0.704 ms - 121200[0m
[0mGET /public/css/bootstrap-theme.min.css [32m200 [0m0.584 ms - 23409[0m
[0mGET /public/css/style.css [32m200 [0m0.531 ms - 1883[0m
[0mGET /public/img/mongo-express-logo.png [32m200 [0m0.677 ms - 17847[0m
[0mGET /public/vendor-47ad38d08af7dbfa26be.min.js [32m200 [0m0.527 ms - 126314[0m
[0mGET /public/index-512f467a07c538127931.min.js [32m200 [0m0.463 ms - 1042[0m
[0mGET /public/fonts/glyphicons-halflings-regular.woff2 [32m200 [0m0.553 ms - 18028[0m
[0mGET /db/Network/ [32m200 [0m28.296 ms - 18830[0m
[0mGET /public/css/bootstrap.min.css [36m304 [0m0.349 ms - -[0m
[0mGET /public/css/style.css [36m304 [0m0.337 ms - -[0m
[0mGET /public/css/bootstrap-theme.min.css [36m304 [0m0.318 ms - -[0m
[0mGET /public/img/mongo-express-logo.png [36m304 [0m0.274 ms - -[0m
[0mGET /public/database-d63e752d3031610834d2.min.js [32m200 [0m1.268 ms - 1632[0m
[0mGET /public/vendor-47ad38d08af7dbfa26be.min.js [36m304 [0m0.291 ms - -[0m
[0mGET /public/fonts/glyphicons-halflings-regular.woff2 [36m304 [0m0.336 ms - -[0m
[0mGET /db/Network/B2B [32m200 [0m72.054 ms - 54295[0m
[0mGET /public/css/bootstrap.min.css [36m304 [0m1.280 ms - -[0m
[0mGET /public/css/bootstrap-theme.min.css [36m304 [0m0.295 ms - -[0m
[0mGET /public/css/codemirror.css [32m200 [0m0.531 ms - 8542[0m
[0mGET /public/css/style.css [36m304 [0m0.278 ms - -[0m
[0mGET /public/css/theme/rubyblue.css [32m200 [0m0.561 ms - 1801[0m
[0mGET /public/img/mongo-express-logo.png [36m304 [0m0.321 ms - -[0m
[0mGET /public/codemirror-298693927a3d2ff0c905.min.js [32m200 [0m0.497 ms - 184058[0m
[0mGET /public/collection-de5030f1c86993d175a9.min.js [32m200 [0m0.503 ms - 9946[0m
[0mGET /public/vendor-47ad38d08af7dbfa26be.min.js [36m304 [0m0.262 ms - -[0m
[0mGET /public/fonts/glyphicons-halflings-regular.woff2 [36m304 [0m0.316 ms - -[0m
[0mGET /db/Network/B2B?sort%5BEntreprise%5D=1&key=&value=&type=S [32m200 [0m70.278 ms - 53209[0m
[0mGET /public/css/bootstrap-theme.min.css [36m304 [0m0.375 ms - -[0m
[0mGET /public/css/bootstrap.min.css [36m304 [0m0.379 ms - -[0m
[0mGET /public/css/style.css [36m304 [0m0.329 ms - -[0m
[0mGET /public/css/theme/rubyblue.css [36m304 [0m0.300 ms - -[0m
[0mGET /public/css/codemirror.css [36m304 [0m0.296 ms - -[0m
[0mGET /public/img/mongo-express-logo.png [36m304 [0m0.327 ms - -[0m
[0mGET /public/vendor-47ad38d08af7dbfa26be.min.js [36m304 [0m0.622 ms - -[0m
[0mGET /public/codemirror-298693927a3d2ff0c905.min.js [36m304 [0m0.590 ms - -[0m
[0mGET /public/collection-de5030f1c86993d175a9.min.js [36m304 [0m0.289 ms - -[0m
[0mGET /public/fonts/glyphicons-halflings-regular.woff2 [36m304 [0m0.335 ms - -[0m
[0mGET /db/Network/B2B?sort%5BEntreprise%5D=-1&key=&value=&type=S [32m200 [0m68.766 ms - 53845[0m
[0mGET /public/css/bootstrap-theme.min.css [36m304 [0m0.383 ms - -[0m
[0mGET /public/css/bootstrap.min.css [36m304 [0m0.312 ms - -[0m
[0mGET /public/css/style.css [36m304 [0m0.293 ms - -[0m
[0mGET /public/css/codemirror.css [36m304 [0m0.293 ms - -[0m
[0mGET /public/css/theme/rubyblue.css [36m304 [0m0.281 ms - -[0m
[0mGET /public/img/mongo-express-logo.png [36m304 [0m0.282 ms - -[0m
[0mGET /public/collection-de5030f1c86993d175a9.min.js [36m304 [0m0.313 ms - -[0m
[0mGET /public/fonts/glyphicons-halflings-regular.woff2 [36m304 [0m0.412 ms - -[0m
[0mGET /db/Network/B2B?sort%5BEntreprise%5D=-1&key=&value=&type=S [32m200 [0m59.440 ms - 53845[0m
[0mGET /public/css/bootstrap.min.css [36m304 [0m0.779 ms - -[0m
[0mGET /public/css/bootstrap-theme.min.css [36m304 [0m0.480 ms - -[0m
[0mGET /public/css/style.css [36m304 [0m0.402 ms - -[0m
[0mGET /public/css/codemirror.css [36m304 [0m0.289 ms - -[0m
[0mGET /public/img/mongo-express-logo.png [36m304 [0m0.280 ms - -[0m
[0mGET /public/css/theme/rubyblue.css [36m304 [0m0.298 ms - -[0m
[0mGET /public/vendor-47ad38d08af7dbfa26be.min.js [32m200 [0m0.744 ms - 126314[0m
[0mGET /public/codemirror-298693927a3d2ff0c905.min.js [32m200 [0m0.466 ms - 184058[0m
[0mGET /public/collection-de5030f1c86993d175a9.min.js [32m200 [0m0.444 ms - 9946[0m
[0mGET /public/fonts/glyphicons-halflings-regular.woff2 [36m304 [0m0.350 ms - -[0m
[0mGET /db/Network/B2B/%25225bc5cc98220b9507baae50d5%2522 [32m200 [0m23.321 ms - 8055[0m
[0mGET /public/css/bootstrap-theme.min.css [36m304 [0m0.330 ms - -[0m
[0mGET /public/css/bootstrap.min.css [36m304 [0m0.312 ms - -[0m
[0mGET /public/css/style.css [36m304 [0m1.090 ms - -[0m
[0mGET /public/css/theme/rubyblue.css [36m304 [0m0.276 ms - -[0m
[0mGET /public/css/codemirror.css [36m304 [0m0.321 ms - -[0m
[0mGET /public/img/mongo-express-logo.png [36m304 [0m0.264 ms - -[0m
[0mGET /public/vendor-47ad38d08af7dbfa26be.min.js [36m304 [0m0.251 ms - -[0m
[0mGET /public/document-14c5429f8bb0330baeef.min.js [32m200 [0m0.583 ms - 1607[0m
[0mGET /public/codemirror-298693927a3d2ff0c905.min.js [36m304 [0m0.263 ms - -[0m
[0mGET /public/fonts/glyphicons-halflings-regular.woff2 [36m304 [0m0.294 ms - -[0m
[0mPOST /checkValid [32m200 [0m6.610 ms - 5[0m
[0mPUT /db/Network/B2B/%225bc5cc98220b9507baae50d5%22 [36m302 [0m9.648 ms - 74[0m
[0mGET /db/Network/B2B [32m200 [0m70.433 ms - 54461[0m
[0mGET /public/css/bootstrap.min.css [36m304 [0m1.215 ms - -[0m
[0mGET /public/css/codemirror.css [36m304 [0m0.502 ms - -[0m
[0mGET /public/img/mongo-express-logo.png [36m304 [0m0.292 ms - -[0m
[0mGET /public/vendor-47ad38d08af7dbfa26be.min.js [36m304 [0m0.284 ms - -[0m
[0mGET /public/collection-de5030f1c86993d175a9.min.js [36m304 [0m0.278 ms - -[0m
[0mGET /public/codemirror-298693927a3d2ff0c905.min.js [36m304 [0m0.308 ms - -[0m
[0mGET /public/css/bootstrap-theme.min.css [36m304 [0m0.931 ms - -[0m
[0mGET /public/css/style.css [36m304 [0m0.951 ms - -[0m
[0mGET /public/css/theme/rubyblue.css [36m304 [0m1.087 ms - -[0m
[0mGET /public/fonts/glyphicons-halflings-regular.woff2 [36m304 [0m0.318 ms - -[0m
[0mGET /db/Network/B2B/%25225bc4b1f9220b9507baae50a1%2522 [32m200 [0m22.590 ms - 7847[0m
[0mGET /public/css/bootstrap-theme.min.css [36m304 [0m0.345 ms - -[0m
[0mGET /public/css/bootstrap.min.css [36m304 [0m0.326 ms - -[0m
[0mGET /public/css/style.css [36m304 [0m0.266 ms - -[0m
[0mGET /public/css/codemirror.css [36m304 [0m0.292 ms - -[0m
[0mGET /public/css/theme/rubyblue.css [36m304 [0m0.303 ms - -[0m
[0mGET /public/img/mongo-express-logo.png [36m304 [0m0.346 ms - -[0m
[0mGET /public/vendor-47ad38d08af7dbfa26be.min.js [36m304 [0m0.349 ms - -[0m
[0mGET /public/codemirror-298693927a3d2ff0c905.min.js [36m304 [0m0.329 ms - -[0m
[0mGET /public/document-14c5429f8bb0330baeef.min.js [36m304 [0m0.322 ms - -[0m
[0mGET /public/fonts/glyphicons-halflings-regular.woff2 [36m304 [0m0.352 ms - -[0m
[0mGET /db/Network/B2B/%25225bc4d3bc220b9507baae50b6%2522 [32m200 [0m18.440 ms - 8556[0m
[0mGET /public/css/bootstrap.min.css [36m304 [0m0.342 ms - -[0m
[0mGET /public/css/style.css [36m304 [0m0.291 ms - -[0m
[0mGET /public/css/theme/rubyblue.css [36m304 [0m0.291 ms - -[0m
[0mGET /public/css/codemirror.css [36m304 [0m0.307 ms - -[0m
[0mGET /public/img/mongo-express-logo.png [36m304 [0m0.278 ms - -[0m
[0mGET /public/vendor-47ad38d08af7dbfa26be.min.js [36m304 [0m0.274 ms - -[0m
[0mGET /public/codemirror-298693927a3d2ff0c905.min.js [36m304 [0m0.272 ms - -[0m
[0mGET /public/document-14c5429f8bb0330baeef.min.js [36m304 [0m0.263 ms - -[0m
[0mGET /public/css/bootstrap-theme.min.css [36m304 [0m0.260 ms - -[0m
[0mGET /public/fonts/glyphicons-halflings-regular.woff2 [36m304 [0m0.314 ms - -[0m
[0mPOST /checkValid [32m200 [0m5.916 ms - 5[0m
[0mPUT /db/Network/B2B/%225bc4d3bc220b9507baae50b6%22 [36m302 [0m10.751 ms - 74[0m
[0mGET /db/Network/B2B [32m200 [0m75.590 ms - 61561[0m
[0mGET /public/css/bootstrap-theme.min.css [36m304 [0m0.425 ms - -[0m
[0mGET /public/css/bootstrap.min.css [36m304 [0m0.296 ms - -[0m
[0mGET /public/css/codemirror.css [36m304 [0m0.290 ms - -[0m
[0mGET /public/css/style.css [36m304 [0m0.262 ms - -[0m
[0mGET /public/css/theme/rubyblue.css [36m304 [0m0.280 ms - -[0m
[0mGET /public/img/mongo-express-logo.png [36m304 [0m0.295 ms - -[0m
[0mGET /public/codemirror-298693927a3d2ff0c905.min.js [36m304 [0m0.337 ms - -[0m
[0mGET /public/collection-de5030f1c86993d175a9.min.js [36m304 [0m0.276 ms - -[0m
[0mGET /public/fonts/glyphicons-halflings-regular.woff2 [36m304 [0m0.306 ms - -[0m
[0mGET /public/vendor-47ad38d08af7dbfa26be.min.js [36m304 [0m0.310 ms - -[0m
[0mGET /db/Network/B2B/%25225bc4d3bc220b9507baae50b6%2522 [32m200 [0m18.786 ms - 8717[0m
[0mGET /public/css/bootstrap.min.css [36m304 [0m0.390 ms - -[0m
[0mGET /public/css/bootstrap-theme.min.css [36m304 [0m0.271 ms - -[0m
[0mGET /public/css/style.css [36m304 [0m0.293 ms - -[0m
[0mGET /public/css/theme/rubyblue.css [36m304 [0m0.295 ms - -[0m
[0mGET /public/css/codemirror.css [36m304 [0m0.275 ms - -[0m
[0mGET /public/img/mongo-express-logo.png [36m304 [0m0.249 ms - -[0m
[0mGET /public/vendor-47ad38d08af7dbfa26be.min.js [36m304 [0m0.259 ms - -[0m
[0mGET /public/codemirror-298693927a3d2ff0c905.min.js [36m304 [0m0.275 ms - -[0m
[0mGET /public/document-14c5429f8bb0330baeef.min.js [36m304 [0m0.312 ms - -[0m
[0mGET /public/fonts/glyphicons-halflings-regular.woff2 [36m304 [0m0.322 ms - -[0m
[0mPOST /checkValid [32m200 [0m6.380 ms - 5[0m
[0mPUT /db/Network/B2B/%225bc4d3bc220b9507baae50b6%22 [36m302 [0m9.924 ms - 74[0m
[0mGET /db/Network/B2B [32m200 [0m67.087 ms - 61773[0m
[0mGET /public/css/bootstrap-theme.min.css [36m304 [0m0.383 ms - -[0m
[0mGET /public/css/style.css [36m304 [0m0.369 ms - -[0m
[0mGET /public/img/mongo-express-logo.png [36m304 [0m0.363 ms - -[0m
[0mGET /public/css/bootstrap.min.css [36m304 [0m1.088 ms - -[0m
[0mGET /public/css/theme/rubyblue.css [36m304 [0m0.304 ms - -[0m
[0mGET /public/css/codemirror.css [36m304 [0m0.269 ms - -[0m
[0mGET /public/vendor-47ad38d08af7dbfa26be.min.js [36m304 [0m0.305 ms - -[0m
[0mGET /public/fonts/glyphicons-halflings-regular.woff2 [36m304 [0m0.340 ms - -[0m
[0mGET /public/codemirror-298693927a3d2ff0c905.min.js [36m304 [0m0.257 ms - -[0m
[0mGET /public/collection-de5030f1c86993d175a9.min.js [36m304 [0m0.233 ms - -[0m
[0mGET /db/Network/B2B/%25225bc4d9e7220b9507baae50b8%2522 [32m200 [0m17.816 ms - 8297[0m
[0mGET /public/css/bootstrap-theme.min.css [36m304 [0m0.357 ms - -[0m
[0mGET /public/css/bootstrap.min.css [36m304 [0m0.326 ms - -[0m
[0mGET /public/css/style.css [36m304 [0m0.298 ms - -[0m
[0mGET /public/css/codemirror.css [36m304 [0m0.257 ms - -[0m
[0mGET /public/img/mongo-express-logo.png [36m304 [0m0.283 ms - -[0m
[0mGET /public/vendor-47ad38d08af7dbfa26be.min.js [36m304 [0m0.283 ms - -[0m
[0mGET /public/css/theme/rubyblue.css [36m304 [0m0.351 ms - -[0m
[0mGET /public/codemirror-298693927a3d2ff0c905.min.js [36m304 [0m0.268 ms - -[0m
[0mGET /public/document-14c5429f8bb0330baeef.min.js [36m304 [0m0.281 ms - -[0m
[0mGET /public/fonts/glyphicons-halflings-regular.woff2 [36m304 [0m0.289 ms - -[0m
[0mPOST /checkValid [32m200 [0m6.796 ms - 5[0m
[0mPUT /db/Network/B2B/%225bc4d9e7220b9507baae50b8%22 [36m302 [0m18.397 ms - 74[0m
[0mGET /db/Network/B2B [32m200 [0m73.353 ms - 61825[0m
[0mGET /public/css/bootstrap.min.css [36m304 [0m0.741 ms - -[0m
[0mGET /public/css/bootstrap-theme.min.css [36m304 [0m0.320 ms - -[0m
[0mGET /public/css/theme/rubyblue.css [36m304 [0m0.299 ms - -[0m
[0mGET /public/css/codemirror.css [36m304 [0m0.293 ms - -[0m
[0mGET /public/css/style.css [36m304 [0m0.238 ms - -[0m
[0mGET /public/img/mongo-express-logo.png [36m304 [0m0.275 ms - -[0m
[0mGET /public/vendor-47ad38d08af7dbfa26be.min.js [36m304 [0m0.334 ms - -[0m
[0mGET /public/codemirror-298693927a3d2ff0c905.min.js [36m304 [0m0.327 ms - -[0m
[0mGET /public/collection-de5030f1c86993d175a9.min.js [36m304 [0m0.295 ms - -[0m
[0mGET /public/fonts/glyphicons-halflings-regular.woff2 [36m304 [0m0.329 ms - -[0m
[0mGET /db/Network/B2B?skip=10&key=&value=&type=&query=&projection= [32m200 [0m71.027 ms - 59262[0m
[0mGET /public/css/bootstrap.min.css [36m304 [0m0.647 ms - -[0m
[0mGET /public/css/bootstrap-theme.min.css [36m304 [0m0.302 ms - -[0m
[0mGET /public/css/style.css [36m304 [0m0.282 ms - -[0m
[0mGET /public/css/codemirror.css [36m304 [0m0.303 ms - -[0m
[0mGET /public/css/theme/rubyblue.css [36m304 [0m0.290 ms - -[0m
[0mGET /public/img/mongo-express-logo.png [36m304 [0m0.300 ms - -[0m
[0mGET /public/collection-de5030f1c86993d175a9.min.js [36m304 [0m0.307 ms - -[0m
[0mGET /public/vendor-47ad38d08af7dbfa26be.min.js [36m304 [0m0.314 ms - -[0m
[0mGET /public/codemirror-298693927a3d2ff0c905.min.js [36m304 [0m0.295 ms - -[0m
[0mGET /public/fonts/glyphicons-halflings-regular.woff2 [36m304 [0m0.331 ms - -[0m
[0mGET /db/Network/B2B/%25225bc5c495220b9507baae50d1%2522 [32m200 [0m20.248 ms - 8940[0m
[0mGET /public/css/bootstrap-theme.min.css [36m304 [0m0.358 ms - -[0m
[0mGET /public/css/bootstrap.min.css [36m304 [0m0.311 ms - -[0m
[0mGET /public/css/style.css [36m304 [0m0.300 ms - -[0m
[0mGET /public/css/theme/rubyblue.css [36m304 [0m0.288 ms - -[0m
[0mGET /public/css/codemirror.css [36m304 [0m0.266 ms - -[0m
[0mGET /public/img/mongo-express-logo.png [36m304 [0m0.297 ms - -[0m
[0mGET /public/vendor-47ad38d08af7dbfa26be.min.js [36m304 [0m0.301 ms - -[0m
[0mGET /public/codemirror-298693927a3d2ff0c905.min.js [36m304 [0m0.302 ms - -[0m
[0mGET /public/document-14c5429f8bb0330baeef.min.js [36m304 [0m0.295 ms - -[0m
[0mGET /public/fonts/glyphicons-halflings-regular.woff2 [36m304 [0m0.321 ms - -[0m
[0mPOST /checkValid [32m200 [0m6.992 ms - 5[0m
[0mPUT /db/Network/B2B/%225bc5c495220b9507baae50d1%22 [36m302 [0m10.474 ms - 74[0m
[0mGET /db/Network/B2B [32m200 [0m63.522 ms - 61825[0m
[0mGET /public/css/bootstrap.min.css [36m304 [0m0.346 ms - -[0m
[0mGET /public/css/style.css [36m304 [0m0.306 ms - -[0m
[0mGET /public/css/bootstrap-theme.min.css [36m304 [0m0.292 ms - -[0m
[0mGET /public/css/theme/rubyblue.css [36m304 [0m0.295 ms - -[0m
[0mGET /public/css/codemirror.css [36m304 [0m0.285 ms - -[0m
[0mGET /public/img/mongo-express-logo.png [36m304 [0m0.321 ms - -[0m
[0mGET /public/vendor-47ad38d08af7dbfa26be.min.js [36m304 [0m0.398 ms - -[0m
[0mGET /public/collection-de5030f1c86993d175a9.min.js [36m304 [0m0.285 ms - -[0m
[0mGET /public/codemirror-298693927a3d2ff0c905.min.js [36m304 [0m0.282 ms - -[0m
[0mGET /public/fonts/glyphicons-halflings-regular.woff2 [36m304 [0m0.475 ms - -[0m
[0mGET /db/Network/B2B/%25225bc4d3bc220b9507baae50b6%2522 [32m200 [0m19.674 ms - 8707[0m
[0mGET /public/css/style.css [36m304 [0m0.350 ms - -[0m
[0mGET /public/vendor-47ad38d08af7dbfa26be.min.js [36m304 [0m0.314 ms - -[0m
[0mGET /public/css/codemirror.css [36m304 [0m0.283 ms - -[0m
[0mGET /public/css/bootstrap-theme.min.css [36m304 [0m0.313 ms - -[0m
[0mGET /public/css/bootstrap.min.css [36m304 [0m1.106 ms - -[0m
[0mGET /public/css/theme/rubyblue.css [36m304 [0m0.279 ms - -[0m
[0mGET /public/document-14c5429f8bb0330baeef.min.js [36m304 [0m0.274 ms - -[0m
[0mGET /public/codemirror-298693927a3d2ff0c905.min.js [36m304 [0m0.275 ms - -[0m
[0mGET /public/fonts/glyphicons-halflings-regular.woff2 [36m304 [0m0.294 ms - -[0m
[0mGET /public/img/mongo-express-logo.png [36m304 [0m0.305 ms - -[0m
[0mGET /public/css/bootstrap.min.css [36m304 [0m0.373 ms - -[0m
[0mGET /public/css/bootstrap-theme.min.css [36m304 [0m0.344 ms - -[0m
[0mGET /public/css/bootstrap.min.css [36m304 [0m0.290 ms - -[0m
[0mGET /public/css/bootstrap-theme.min.css [36m304 [0m0.278 ms - -[0m
[0mGET / [32m200 [0m24.839 ms - 14414[0m
[0mGET /public/css/style.css [32m200 [0m0.795 ms - 1883[0m
[0mGET /public/img/mongo-express-logo.png [32m200 [0m0.477 ms - 17847[0m
[0mGET /public/index-512f467a07c538127931.min.js [32m200 [0m0.390 ms - 1042[0m
[0mGET /public/vendor-47ad38d08af7dbfa26be.min.js [32m200 [0m0.457 ms - 126314[0m
[0mGET /public/fonts/glyphicons-halflings-regular.woff2 [32m200 [0m0.462 ms - 18028[0m
[0mGET /db/Network/ [32m200 [0m22.188 ms - 18830[0m
[0mGET /public/css/bootstrap.min.css [36m304 [0m0.290 ms - -[0m
[0mGET /public/css/bootstrap-theme.min.css [36m304 [0m0.322 ms - -[0m
[0mGET /public/css/style.css [36m304 [0m0.246 ms - -[0m
[0mGET /public/vendor-47ad38d08af7dbfa26be.min.js [36m304 [0m0.275 ms - -[0m
[0mGET /public/img/mongo-express-logo.png [36m304 [0m0.242 ms - -[0m
[0mGET /public/database-d63e752d3031610834d2.min.js [36m304 [0m0.240 ms - -[0m
[0mGET /public/fonts/glyphicons-halflings-regular.woff2 [36m304 [0m0.270 ms - -[0m
[0mGET /public/css/theme/rubyblue.css [36m304 [0m1.995 ms - -[0m
[0mGET /db/Network/B2B [32m200 [0m63.461 ms - 61659[0m
[0mGET /public/css/codemirror.css [36m304 [0m0.559 ms - -[0m
[0mGET /public/codemirror-298693927a3d2ff0c905.min.js [36m304 [0m0.480 ms - -[0m
[0mGET /public/css/bootstrap.min.css [36m304 [0m0.364 ms - -[0m
[0mGET /public/css/bootstrap-theme.min.css [36m304 [0m0.242 ms - -[0m
[0mGET /public/css/style.css [36m304 [0m0.231 ms - -[0m
[0mGET /public/img/mongo-express-logo.png [36m304 [0m0.230 ms - -[0m
[0mGET /public/collection-de5030f1c86993d175a9.min.js [32m200 [0m0.743 ms - 9946[0m
[0mGET /public/vendor-47ad38d08af7dbfa26be.min.js [36m304 [0m0.238 ms - -[0m
[0mGET /public/fonts/glyphicons-halflings-regular.woff2 [36m304 [0m0.289 ms - -[0m
[0mGET /db/Network/B2B/%25225bc4d3bc220b9507baae50b6%2522 [36m304 [0m22.677 ms - -[0m
[0mGET /public/css/bootstrap-theme.min.css [36m304 [0m0.353 ms - -[0m
[0mGET /public/css/bootstrap.min.css [36m304 [0m0.310 ms - -[0m
[0mGET /public/css/style.css [36m304 [0m0.284 ms - -[0m
[0mGET /public/document-14c5429f8bb0330baeef.min.js [32m200 [0m0.623 ms - 1607[0m
[0mGET /public/css/codemirror.css [36m304 [0m0.292 ms - -[0m
[0mGET /public/css/theme/rubyblue.css [36m304 [0m0.275 ms - -[0m
[0mGET /public/vendor-47ad38d08af7dbfa26be.min.js [36m304 [0m0.252 ms - -[0m
[0mGET /public/codemirror-298693927a3d2ff0c905.min.js [36m304 [0m0.248 ms - -[0m
[0mGET /public/img/mongo-express-logo.png [36m304 [0m0.275 ms - -[0m
[0mGET /public/fonts/glyphicons-halflings-regular.woff2 [36m304 [0m0.313 ms - -[0m
[0mPOST /checkValid [32m200 [0m6.820 ms - 5[0m
[0mPUT /db/Network/B2B/%225bc4d3bc220b9507baae50b6%22 [36m302 [0m10.472 ms - 74[0m
[0mGET /db/Network/B2B [32m200 [0m70.394 ms - 61826[0m
[0mGET /public/css/codemirror.css [36m304 [0m0.331 ms - -[0m
[0mGET /public/css/bootstrap-theme.min.css [36m304 [0m0.273 ms - -[0m
[0mGET /public/css/style.css [36m304 [0m0.271 ms - -[0m
[0mGET /public/css/theme/rubyblue.css [36m304 [0m0.261 ms - -[0m
[0mGET /public/img/mongo-express-logo.png [36m304 [0m0.251 ms - -[0m
[0mGET /public/css/bootstrap.min.css [36m304 [0m0.277 ms - -[0m
[0mGET /public/fonts/glyphicons-halflings-regular.woff2 [36m304 [0m0.275 ms - -[0m
[0mGET /public/collection-de5030f1c86993d175a9.min.js [36m304 [0m0.258 ms - -[0m
[0mGET /public/codemirror-298693927a3d2ff0c905.min.js [36m304 [0m0.255 ms - -[0m
[0mGET /public/vendor-47ad38d08af7dbfa26be.min.js [36m304 [0m0.244 ms - -[0m
[0mGET /public/css/bootstrap.min.css [36m304 [0m0.335 ms - -[0m
[0mGET /public/css/bootstrap-theme.min.css [36m304 [0m0.292 ms - -[0m
[0mGET /public/img/mongo-express-logo.png [36m304 [0m0.270 ms - -[0m
[0mGET /public/index-512f467a07c538127931.min.js [36m304 [0m0.272 ms - -[0m
[0mGET /public/css/style.css [36m304 [0m0.266 ms - -[0m
[0mGET /public/vendor-47ad38d08af7dbfa26be.min.js [36m304 [0m0.257 ms - -[0m
[0mGET /public/fonts/glyphicons-halflings-regular.woff2 [36m304 [0m0.235 ms - -[0m
[0mGET /public/fonts/glyphicons-halflings-regular.woff2 [36m304 [0m0.305 ms - -[0m
[0mGET /public/css/bootstrap.min.css [36m304 [0m0.274 ms - -[0m
[0mGET /public/css/bootstrap-theme.min.css [36m304 [0m0.272 ms - -[0m
[0mGET /public/css/style.css [36m304 [0m0.271 ms - -[0m
[0mGET /public/img/mongo-express-logo.png [36m304 [0m0.275 ms - -[0m
[0mGET /public/vendor-47ad38d08af7dbfa26be.min.js [36m304 [0m0.273 ms - -[0m
[0mGET /public/index-512f467a07c538127931.min.js [36m304 [0m0.368 ms - -[0m
[0mGET /public/css/bootstrap.min.css [36m304 [0m0.286 ms - -[0m
[0mGET /public/css/bootstrap-theme.min.css [36m304 [0m0.283 ms - -[0m
[0mGET /public/css/style.css [36m304 [0m0.269 ms - -[0m
[0mGET /public/img/mongo-express-logo.png [36m304 [0m0.269 ms - -[0m
[0mGET /public/vendor-47ad38d08af7dbfa26be.min.js [36m304 [0m0.327 ms - -[0m
[0mGET /public/fonts/glyphicons-halflings-regular.woff2 [36m304 [0m0.325 ms - -[0m
[0mGET / [32m200 [0m25.031 ms - 14414[0m
[0mGET /db/Project_Management/ [32m200 [0m22.780 ms - 17944[0m
[0mGET /public/css/bootstrap-theme.min.css [36m304 [0m0.326 ms - -[0m
[0mGET /public/css/bootstrap.min.css [36m304 [0m0.303 ms - -[0m
[0mGET /public/css/style.css [36m304 [0m0.293 ms - -[0m
[0mGET /public/img/mongo-express-logo.png [36m304 [0m0.282 ms - -[0m
[0mGET /public/vendor-47ad38d08af7dbfa26be.min.js [36m304 [0m0.263 ms - -[0m
[0mGET /public/database-d63e752d3031610834d2.min.js [36m304 [0m0.275 ms - -[0m
[0mGET /public/fonts/glyphicons-halflings-regular.woff2 [36m304 [0m0.281 ms - -[0m
[0mGET /db/Project_Management/Roadmap_IV [32m200 [0m102.917 ms - 575366[0m
[0mGET /public/css/bootstrap-theme.min.css [36m304 [0m0.739 ms - -[0m
[0mGET /public/css/bootstrap.min.css [36m304 [0m0.524 ms - -[0m
[0mGET /public/css/style.css [36m304 [0m0.485 ms - -[0m
[0mGET /public/css/theme/rubyblue.css [36m304 [0m0.263 ms - -[0m
[0mGET /public/img/mongo-express-logo.png [36m304 [0m0.311 ms - -[0m
[0mGET /public/css/codemirror.css [36m304 [0m0.337 ms - -[0m
[0mGET /public/fonts/glyphicons-halflings-regular.woff2 [36m304 [0m0.315 ms - -[0m
[0mGET /public/vendor-47ad38d08af7dbfa26be.min.js [36m304 [0m0.350 ms - -[0m
[0mGET /public/collection-de5030f1c86993d175a9.min.js [36m304 [0m0.244 ms - -[0m
[0mGET /public/codemirror-298693927a3d2ff0c905.min.js [36m304 [0m0.307 ms - -[0m
[0mGET /db/Project_Management/Roadmap_IV/%25225bb344814a083707a6c248e8%2522 [32m200 [0m30.626 ms - 85620[0m
[0mGET /public/css/bootstrap-theme.min.css [36m304 [0m0.343 ms - -[0m
[0mGET /public/css/bootstrap.min.css [36m304 [0m0.271 ms - -[0m
[0mGET /public/css/style.css [36m304 [0m0.271 ms - -[0m
[0mGET /public/css/theme/rubyblue.css [36m304 [0m0.273 ms - -[0m
[0mGET /public/css/codemirror.css [36m304 [0m0.271 ms - -[0m
[0mGET /public/fonts/glyphicons-halflings-regular.woff2 [36m304 [0m0.295 ms - -[0m
[0mGET /public/codemirror-298693927a3d2ff0c905.min.js [36m304 [0m0.306 ms - -[0m
[0mGET /public/document-14c5429f8bb0330baeef.min.js [36m304 [0m0.309 ms - -[0m
[0mGET /public/img/mongo-express-logo.png [36m304 [0m0.287 ms - -[0m
[0mGET /public/vendor-47ad38d08af7dbfa26be.min.js [36m304 [0m0.356 ms - -[0m
[0mPOST /checkValid [32m200 [0m1641.972 ms - 5[0m
[0mPUT /db/Project_Management/Roadmap_IV/%225bb344814a083707a6c248e8%22 [36m302 [0m1142.217 ms - 110[0m
[0mGET /db/Project_Management/Roadmap_IV [32m200 [0m106.392 ms - 575531[0m
[0mGET /public/css/bootstrap-theme.min.css [36m304 [0m0.724 ms - -[0m
[0mGET /public/css/style.css [36m304 [0m0.468 ms - -[0m
[0mGET /public/css/bootstrap.min.css [36m304 [0m0.414 ms - -[0m
[0mGET /public/css/codemirror.css [36m304 [0m0.261 ms - -[0m
[0mGET /public/img/mongo-express-logo.png [36m304 [0m0.324 ms - -[0m
[0mGET /public/css/theme/rubyblue.css [36m304 [0m0.309 ms - -[0m
[0mGET /public/fonts/glyphicons-halflings-regular.woff2 [36m304 [0m0.288 ms - -[0m
[0mGET /public/vendor-47ad38d08af7dbfa26be.min.js [36m304 [0m0.354 ms - -[0m
[0mGET /public/collection-de5030f1c86993d175a9.min.js [36m304 [0m0.312 ms - -[0m
[0mGET /public/codemirror-298693927a3d2ff0c905.min.js [36m304 [0m0.272 ms - -[0m
[0mGET /public/database-d63e752d3031610834d2.min.js [36m304 [0m0.811 ms - -[0m
[0mGET /db/Network/ [32m200 [0m24.885 ms - 18830[0m
[0mGET /public/css/style.css [36m304 [0m0.314 ms - -[0m
[0mGET /public/css/bootstrap.min.css [36m304 [0m0.296 ms - -[0m
[0mGET /public/css/bootstrap-theme.min.css [36m304 [0m0.270 ms - -[0m
[0mGET /public/img/mongo-express-logo.png [36m304 [0m0.265 ms - -[0m
[0mGET /public/fonts/glyphicons-halflings-regular.woff2 [36m304 [0m0.294 ms - -[0m
[0mGET /public/vendor-47ad38d08af7dbfa26be.min.js [36m304 [0m0.282 ms - -[0m
[0mGET /public/database-d63e752d3031610834d2.min.js [36m304 [0m0.262 ms - -[0m
[0mGET /db/Network/Partenariats [32m200 [0m65.047 ms - 29740[0m
[0mGET /public/css/bootstrap-theme.min.css [36m304 [0m0.335 ms - -[0m
[0mGET /public/css/style.css [36m304 [0m0.260 ms - -[0m
[0mGET /public/img/mongo-express-logo.png [36m304 [0m0.298 ms - -[0m
[0mGET /public/css/codemirror.css [36m304 [0m0.281 ms - -[0m
[0mGET /public/css/theme/rubyblue.css [36m304 [0m0.261 ms - -[0m
[0mGET /public/css/bootstrap.min.css [36m304 [0m0.288 ms - -[0m
[0mGET /public/fonts/glyphicons-halflings-regular.woff2 [36m304 [0m0.293 ms - -[0m
[0mGET /public/vendor-47ad38d08af7dbfa26be.min.js [36m304 [0m0.285 ms - -[0m
[0mGET /public/codemirror-298693927a3d2ff0c905.min.js [36m304 [0m0.269 ms - -[0m
[0mGET /public/collection-de5030f1c86993d175a9.min.js [36m304 [0m0.255 ms - -[0m
[0mGET /db/Network/Partenariats/%25225ba3b0a49f6388079b01dca2%2522 [32m200 [0m21.347 ms - 7518[0m
[0mGET /public/css/bootstrap.min.css [36m304 [0m0.366 ms - -[0m
[0mGET /public/css/codemirror.css [36m304 [0m0.369 ms - -[0m
[0mGET /public/css/style.css [36m304 [0m0.293 ms - -[0m
[0mGET /public/css/bootstrap-theme.min.css [36m304 [0m0.311 ms - -[0m
[0mGET /public/css/theme/rubyblue.css [36m304 [0m0.275 ms - -[0m
[0mGET /public/img/mongo-express-logo.png [36m304 [0m0.309 ms - -[0m
[0mGET /public/vendor-47ad38d08af7dbfa26be.min.js [36m304 [0m0.285 ms - -[0m
[0mGET /public/codemirror-298693927a3d2ff0c905.min.js [36m304 [0m0.333 ms - -[0m
[0mGET /public/document-14c5429f8bb0330baeef.min.js [36m304 [0m0.263 ms - -[0m
[0mGET /public/fonts/glyphicons-halflings-regular.woff2 [36m304 [0m0.347 ms - -[0m
[0mGET /public/css/bootstrap-theme.min.css [36m304 [0m0.318 ms - -[0m
[0mGET /public/css/style.css [36m304 [0m0.378 ms - -[0m
[0mGET /public/vendor-47ad38d08af7dbfa26be.min.js [36m304 [0m0.339 ms - -[0m
[0mGET /public/img/mongo-express-logo.png [36m304 [0m0.293 ms - -[0m
[0mGET /public/index-512f467a07c538127931.min.js [36m304 [0m0.290 ms - -[0m
[0mGET /public/css/bootstrap.min.css [36m304 [0m0.315 ms - -[0m
[0mGET /public/fonts/glyphicons-halflings-regular.woff2 [36m304 [0m0.286 ms - -[0m
[0mPOST /checkValid [32m200 [0m6.798 ms - 5[0m
[0mPOST /db/Network/Partenariats [36m302 [0m10.067 ms - 92[0m
[0mGET /db/Network/Partenariats [32m200 [0m60.581 ms - 31770[0m
[0mGET /public/css/theme/rubyblue.css [36m304 [0m0.374 ms - -[0m
[0mGET /public/css/bootstrap.min.css [36m304 [0m0.321 ms - -[0m
[0mGET /public/css/style.css [36m304 [0m0.291 ms - -[0m
[0mGET /public/img/mongo-express-logo.png [36m304 [0m0.292 ms - -[0m
[0mGET /public/css/codemirror.css [36m304 [0m0.274 ms - -[0m
[0mGET /public/css/bootstrap-theme.min.css [36m304 [0m0.274 ms - -[0m
[0mGET /public/collection-de5030f1c86993d175a9.min.js [36m304 [0m0.282 ms - -[0m
[0mGET /public/vendor-47ad38d08af7dbfa26be.min.js [36m304 [0m0.363 ms - -[0m
[0mGET /public/codemirror-298693927a3d2ff0c905.min.js [36m304 [0m0.408 ms - -[0m
[0mGET /public/fonts/glyphicons-halflings-regular.woff2 [36m304 [0m0.294 ms - -[0m
[0mGET /db/Network/Partenariats/%25225beafb4da22cf606f2abb3be%2522 [32m200 [0m21.436 ms - 7523[0m
[0mGET /public/css/bootstrap-theme.min.css [36m304 [0m0.388 ms - -[0m
[0mGET /public/css/theme/rubyblue.css [36m304 [0m0.280 ms - -[0m
[0mGET /public/vendor-47ad38d08af7dbfa26be.min.js [36m304 [0m0.284 ms - -[0m
[0mGET /public/css/codemirror.css [36m304 [0m0.290 ms - -[0m
[0mGET /public/codemirror-298693927a3d2ff0c905.min.js [36m304 [0m0.287 ms - -[0m
[0mGET /public/document-14c5429f8bb0330baeef.min.js [36m304 [0m0.287 ms - -[0m
[0mGET /public/css/bootstrap.min.css [36m304 [0m0.274 ms - -[0m
[0mGET /public/img/mongo-express-logo.png [36m304 [0m0.366 ms - -[0m
[0mGET /public/css/style.css [36m304 [0m0.292 ms - -[0m
[0mGET /public/fonts/glyphicons-halflings-regular.woff2 [36m304 [0m0.290 ms - -[0m
[0mPOST /checkValid [32m200 [0m5.838 ms - 5[0m
[0mPUT /db/Network/Partenariats/%225beafb4da22cf606f2abb3be%22 [36m302 [0m10.520 ms - 92[0m
[0mGET /db/Network/Partenariats [32m200 [0m66.600 ms - 31808[0m
[0mGET /public/css/bootstrap.min.css [36m304 [0m0.333 ms - -[0m
[0mGET /public/css/bootstrap-theme.min.css [36m304 [0m0.278 ms - -[0m
[0mGET /public/css/theme/rubyblue.css [36m304 [0m0.282 ms - -[0m
[0mGET /public/img/mongo-express-logo.png [36m304 [0m0.288 ms - -[0m
[0mGET /public/css/codemirror.css [36m304 [0m0.251 ms - -[0m
[0mGET /public/css/style.css [36m304 [0m0.269 ms - -[0m
[0mGET /public/vendor-47ad38d08af7dbfa26be.min.js [36m304 [0m0.280 ms - -[0m
[0mGET /public/codemirror-298693927a3d2ff0c905.min.js [36m304 [0m0.300 ms - -[0m
[0mGET /public/collection-de5030f1c86993d175a9.min.js [36m304 [0m0.258 ms - -[0m
[0mGET /public/fonts/glyphicons-halflings-regular.woff2 [36m304 [0m0.276 ms - -[0m
[0mGET / [32m200 [0m28.058 ms - 14414[0m
[0mGET /public/css/style.css [32m200 [0m3.892 ms - 1883[0m
[0mGET /public/css/bootstrap-theme.min.css [32m200 [0m3.459 ms - 23409[0m
[0mGET /public/img/mongo-express-logo.png [32m200 [0m3.474 ms - 17847[0m
[0mGET /public/index-512f467a07c538127931.min.js [32m200 [0m3.441 ms - 1042[0m
[0mGET /public/css/bootstrap.min.css [32m200 [0m4.209 ms - 121200[0m
[0mGET /public/vendor-47ad38d08af7dbfa26be.min.js [36m304 [0m0.294 ms - -[0m
[0mGET /public/fonts/glyphicons-halflings-regular.woff2 [32m200 [0m0.642 ms - 18028[0m
[0mGET /public/img/gears.gif [32m200 [0m0.566 ms - 50281[0m
[0mGET /db/Life_Management/ [32m200 [0m22.067 ms - 10835[0m
[0mGET /public/vendor-47ad38d08af7dbfa26be.min.js [36m304 [0m0.358 ms - -[0m
[0mGET /public/css/bootstrap-theme.min.css [32m200 [0m1.892 ms - 23409[0m
[0mGET /public/css/style.css [32m200 [0m1.798 ms - 1883[0m
[0mGET /public/img/mongo-express-logo.png [32m200 [0m1.777 ms - 17847[0m
[0mGET /public/css/bootstrap.min.css [32m200 [0m1.971 ms - 121200[0m
[0mGET /public/database-d63e752d3031610834d2.min.js [36m304 [0m0.287 ms - -[0m
[0mGET /public/img/gears.gif [32m200 [0m0.568 ms - 50281[0m
[0mGET /db/Life_Management/Activites [32m200 [0m56.914 ms - 27369[0m
[0mGET /public/css/style.css [36m304 [0m2.038 ms - -[0m
[0mGET /public/vendor-47ad38d08af7dbfa26be.min.js [36m304 [0m1.723 ms - -[0m
[0mGET /public/collection-de5030f1c86993d175a9.min.js [32m200 [0m2.956 ms - 9946[0m
[0mGET /public/css/bootstrap-theme.min.css [32m200 [0m3.030 ms - 23409[0m
[0mGET /public/css/bootstrap.min.css [32m200 [0m2.772 ms - 121200[0m
[0mGET /public/css/codemirror.css [36m304 [0m0.513 ms - -[0m
[0mGET /public/css/theme/rubyblue.css [36m304 [0m0.527 ms - -[0m
[0mGET /public/codemirror-298693927a3d2ff0c905.min.js [36m304 [0m0.405 ms - -[0m
[0mGET /public/img/mongo-express-logo.png [32m200 [0m0.600 ms - 17847[0m
[0mGET /public/img/gears.gif [32m200 [0m0.616 ms - 50281[0m
[0mGET /db/Project_Management/ [32m200 [0m25.519 ms - 17944[0m
[0mGET /public/css/bootstrap-theme.min.css [36m304 [0m1.461 ms - -[0m
[0mGET /public/vendor-47ad38d08af7dbfa26be.min.js [36m304 [0m1.408 ms - -[0m
[0mGET /public/css/bootstrap.min.css [36m304 [0m1.362 ms - -[0m
[0mGET /public/database-d63e752d3031610834d2.min.js [36m304 [0m1.338 ms - -[0m
[0mGET /public/css/style.css [36m304 [0m1.328 ms - -[0m
[0mGET /public/img/mongo-express-logo.png [36m304 [0m0.266 ms - -[0m
[0mGET /public/img/gears.gif [32m200 [0m0.511 ms - 50281[0m
[0mGET /db/Project_Management/Daily_Tarik [32m200 [0m72.799 ms - 52476[0m
[0mGET /db/Project_Management/Daily_Tarik [36m304 [0m64.156 ms - -[0m
[0mGET /public/css/theme/rubyblue.css [32m200 [0m2.799 ms - 1801[0m
[0mGET /public/img/mongo-express-logo.png [32m200 [0m2.710 ms - 17847[0m
[0mGET /public/css/codemirror.css [32m200 [0m2.742 ms - 8542[0m
[0mGET /public/codemirror-298693927a3d2ff0c905.min.js [32m200 [0m2.806 ms - 184058[0m
[0mGET /public/collection-de5030f1c86993d175a9.min.js [32m200 [0m2.431 ms - 9946[0m
[0mGET /public/css/style.css [32m200 [0m2.407 ms - 1883[0m
[0mGET /public/css/bootstrap-theme.min.css [32m200 [0m2.289 ms - 23409[0m
[0mGET /public/css/bootstrap.min.css [32m200 [0m2.389 ms - 121200[0m
[0mGET /public/vendor-47ad38d08af7dbfa26be.min.js [32m200 [0m2.314 ms - 126314[0m
[0mGET /public/img/gears.gif [32m200 [0m0.634 ms - 50281[0m
[0mGET /db/Project_Management/Daily_Tarik?skip=10&key=&value=&type=&query=&projection= [32m200 [0m58.524 ms - 24890[0m
[0mGET /db/Project_Management/Daily_Tarik?skip=10&key=&value=&type=&query=&projection= [36m304 [0m60.505 ms - -[0m
[0mGET /public/css/codemirror.css [32m200 [0m2.743 ms - 8542[0m
[0mGET /public/css/theme/rubyblue.css [32m200 [0m2.739 ms - 1801[0m
[0mGET /public/img/mongo-express-logo.png [32m200 [0m2.406 ms - 17847[0m
[0mGET /public/css/bootstrap-theme.min.css [32m200 [0m2.708 ms - 23409[0m
[0mGET /public/vendor-47ad38d08af7dbfa26be.min.js [32m200 [0m2.558 ms - 126314[0m
[0mGET /public/css/style.css [32m200 [0m1.921 ms - 1883[0m
[0mGET /public/collection-de5030f1c86993d175a9.min.js [32m200 [0m1.893 ms - 9946[0m
[0mGET /public/css/bootstrap.min.css [32m200 [0m1.886 ms - 121200[0m
[0mGET /public/codemirror-298693927a3d2ff0c905.min.js [32m200 [0m2.967 ms - 184058[0m
[0mGET /public/img/gears.gif [32m200 [0m0.638 ms - 50281[0m
[0mGET /db/Project_Management/Daily_Tarik/%25225bc635df220b9507baae50e6%2522 [32m200 [0m21.553 ms - 8626[0m
[0mGET /db/Project_Management/Daily_Tarik/%25225bc635df220b9507baae50e6%2522 [36m304 [0m24.068 ms - -[0m
[0mGET /public/css/codemirror.css [32m200 [0m2.764 ms - 8542[0m
[0mGET /public/css/bootstrap-theme.min.css [32m200 [0m2.747 ms - 23409[0m
[0mGET /public/css/style.css [32m200 [0m2.732 ms - 1883[0m
[0mGET /public/css/theme/rubyblue.css [32m200 [0m2.707 ms - 1801[0m
[0mGET /public/css/bootstrap.min.css [32m200 [0m2.967 ms - 121200[0m
[0mGET /public/img/mongo-express-logo.png [36m304 [0m1.064 ms - -[0m
[0mGET /public/document-14c5429f8bb0330baeef.min.js [32m200 [0m1.758 ms - 1607[0m
[0mGET /public/vendor-47ad38d08af7dbfa26be.min.js [32m200 [0m3.559 ms - 126314[0m
[0mGET /public/codemirror-298693927a3d2ff0c905.min.js [32m200 [0m2.440 ms - 184058[0m
[0mGET /public/img/gears.gif [32m200 [0m0.582 ms - 50281[0m
[0mGET /db/Project_Management/Daily_Tarik/%25225bc635df220b9507baae50e6%2522 [36m304 [0m18.522 ms - -[0m
[0mGET /public/vendor-47ad38d08af7dbfa26be.min.js [36m304 [0m3.142 ms - -[0m
[0mGET /public/img/mongo-express-logo.png [36m304 [0m3.076 ms - -[0m
[0mGET /public/codemirror-298693927a3d2ff0c905.min.js [36m304 [0m1.972 ms - -[0m
[0mGET /public/document-14c5429f8bb0330baeef.min.js [36m304 [0m1.654 ms - -[0m
[0mGET /public/css/bootstrap.min.css [32m200 [0m1.743 ms - 121200[0m
[0mGET /public/css/codemirror.css [36m304 [0m2.180 ms - -[0m
[0mGET /public/css/theme/rubyblue.css [36m304 [0m2.099 ms - -[0m
[0mGET /public/css/bootstrap-theme.min.css [36m304 [0m1.199 ms - -[0m
[0mGET /public/css/style.css [36m304 [0m1.103 ms - -[0m
[0mGET /public/img/gears.gif [32m200 [0m0.639 ms - 50281[0m
[0mPOST /checkValid [32m200 [0m6.738 ms - 5[0m
[0mPOST /db/Project_Management/Daily_Tarik [36m302 [0m10.869 ms - 112[0m
[0mGET /db/Project_Management/Daily_Tarik [32m200 [0m66.963 ms - 52640[0m
[0mGET /public/codemirror-298693927a3d2ff0c905.min.js [36m304 [0m2.556 ms - -[0m
[0mGET /public/collection-de5030f1c86993d175a9.min.js [36m304 [0m2.350 ms - -[0m
[0mGET /public/vendor-47ad38d08af7dbfa26be.min.js [36m304 [0m2.287 ms - -[0m
[0mGET /public/css/bootstrap.min.css [36m304 [0m2.308 ms - -[0m
[0mGET /public/css/bootstrap-theme.min.css [36m304 [0m2.315 ms - -[0m
[0mGET /public/css/style.css [36m304 [0m0.996 ms - -[0m
[0mGET /public/css/codemirror.css [36m304 [0m0.994 ms - -[0m
[0mGET /public/css/theme/rubyblue.css [36m304 [0m1.006 ms - -[0m
[0mGET /public/img/mongo-express-logo.png [32m200 [0m0.820 ms - 17847[0m
[0mGET /public/img/gears.gif [32m200 [0m0.659 ms - 50281[0m
[0mGET /db/Project_Management/Daily_Tarik?skip=10&key=&value=&type=&query=&projection= [32m200 [0m65.063 ms - 26509[0m
[0mGET /public/css/codemirror.css [36m304 [0m1.851 ms - -[0m
[0mGET /public/codemirror-298693927a3d2ff0c905.min.js [36m304 [0m1.860 ms - -[0m
[0mGET /public/css/bootstrap.min.css [36m304 [0m1.891 ms - -[0m
[0mGET /public/css/style.css [36m304 [0m1.928 ms - -[0m
[0mGET /public/css/theme/rubyblue.css [36m304 [0m1.947 ms - -[0m
[0mGET /public/vendor-47ad38d08af7dbfa26be.min.js [36m304 [0m1.534 ms - -[0m
[0mGET /public/collection-de5030f1c86993d175a9.min.js [36m304 [0m1.519 ms - -[0m
[0mGET /public/img/mongo-express-logo.png [36m304 [0m1.556 ms - -[0m
[0mGET /public/css/bootstrap-theme.min.css [36m304 [0m1.505 ms - -[0m
[0mGET /public/img/gears.gif [32m200 [0m0.563 ms - 50281[0m
[0mGET /db/Project_Management/ [32m200 [0m27.314 ms - 17944[0m
[0mGET /db/Project_Management/Roadmap_IV [32m200 [0m107.743 ms - 579204[0m
[0mGET /public/css/theme/rubyblue.css [36m304 [0m2.384 ms - -[0m
[0mGET /public/css/codemirror.css [36m304 [0m1.773 ms - -[0m
[0mGET /public/css/bootstrap-theme.min.css [32m200 [0m3.401 ms - 23409[0m
[0mGET /public/css/style.css [32m200 [0m4.907 ms - 1883[0m
[0mGET /public/css/bootstrap.min.css [32m200 [0m4.954 ms - 121200[0m
[0mGET /public/img/mongo-express-logo.png [32m200 [0m0.775 ms - 17847[0m
[0mGET /public/fonts/glyphicons-halflings-regular.woff2 [32m200 [0m0.613 ms - 18028[0m
[0mGET /public/vendor-47ad38d08af7dbfa26be.min.js [32m200 [0m0.484 ms - 126314[0m
[0mGET /public/codemirror-298693927a3d2ff0c905.min.js [36m304 [0m0.590 ms - -[0m
[0mGET /public/collection-de5030f1c86993d175a9.min.js [36m304 [0m0.571 ms - -[0m
[0mGET /public/img/gears.gif [32m200 [0m0.510 ms - 50281[0m
[0mGET /db/Project_Management/Roadmap_IV/%25225ba3ae9c9f6388079b01dc9f%2522 [32m200 [0m29.421 ms - 118445[0m
[0mGET /db/Project_Management/Roadmap_IV/%25225ba3ae9c9f6388079b01dc9f%2522 [36m304 [0m29.579 ms - -[0m
[0mGET /public/img/mongo-express-logo.png [32m200 [0m1.969 ms - 17847[0m
[0mGET /public/css/style.css [32m200 [0m2.257 ms - 1883[0m
[0mGET /public/css/bootstrap-theme.min.css [32m200 [0m2.287 ms - 23409[0m
[0mGET /public/css/codemirror.css [32m200 [0m2.318 ms - 8542[0m
[0mGET /public/css/bootstrap.min.css [32m200 [0m2.725 ms - 121200[0m
[0mGET /public/css/theme/rubyblue.css [32m200 [0m1.976 ms - 1801[0m
[0mGET /public/document-14c5429f8bb0330baeef.min.js [32m200 [0m1.875 ms - 1607[0m
[0mGET /public/vendor-47ad38d08af7dbfa26be.min.js [32m200 [0m1.918 ms - 126314[0m
[0mGET /public/codemirror-298693927a3d2ff0c905.min.js [32m200 [0m2.003 ms - 184058[0m
[0mGET /public/img/gears.gif [32m200 [0m0.627 ms - 50281[0m
[0mGET /db/Project_Management/Daily_Tarik/%25225bec08aaa22cf606f2abb3c0%2522 [32m200 [0m17.621 ms - 6870[0m
[0mGET /public/css/style.css [36m304 [0m3.016 ms - -[0m
[0mGET /public/css/bootstrap-theme.min.css [36m304 [0m3.147 ms - -[0m
[0mGET /public/css/bootstrap.min.css [36m304 [0m3.124 ms - -[0m
[0mGET /public/css/theme/rubyblue.css [36m304 [0m3.056 ms - -[0m
[0mGET /public/css/codemirror.css [36m304 [0m3.009 ms - -[0m
[0mGET /public/codemirror-298693927a3d2ff0c905.min.js [36m304 [0m1.163 ms - -[0m
[0mGET /public/vendor-47ad38d08af7dbfa26be.min.js [36m304 [0m1.105 ms - -[0m
[0mGET /public/img/mongo-express-logo.png [36m304 [0m1.052 ms - -[0m
[0mGET /public/document-14c5429f8bb0330baeef.min.js [36m304 [0m1.050 ms - -[0m
[0mGET /public/img/gears.gif [32m200 [0m0.454 ms - 50281[0m
[0mPOST /checkValid [32m200 [0m6.584 ms - 5[0m
[0mPUT /db/Project_Management/Daily_Tarik/%225bec08aaa22cf606f2abb3c0%22 [36m302 [0m11.052 ms - 112[0m
[0mGET /db/Project_Management/Daily_Tarik [32m200 [0m68.987 ms - 52642[0m
[0mGET /public/css/bootstrap.min.css [36m304 [0m0.379 ms - -[0m
[0mGET /public/css/theme/rubyblue.css [36m304 [0m1.203 ms - -[0m
[0mGET /public/css/style.css [36m304 [0m1.162 ms - -[0m
[0mGET /public/css/codemirror.css [36m304 [0m1.116 ms - -[0m
[0mGET /public/css/bootstrap-theme.min.css [36m304 [0m1.086 ms - -[0m
[0mGET /public/collection-de5030f1c86993d175a9.min.js [36m304 [0m0.916 ms - -[0m
[0mGET /public/vendor-47ad38d08af7dbfa26be.min.js [36m304 [0m0.943 ms - -[0m
[0mGET /public/codemirror-298693927a3d2ff0c905.min.js [36m304 [0m0.956 ms - -[0m
[0mGET /public/img/mongo-express-logo.png [36m304 [0m0.322 ms - -[0m
[0mGET /public/img/gears.gif [32m200 [0m0.589 ms - 50281[0m
[0mPOST /checkValid [32m200 [0m90.867 ms - 5[0m
[0mPOST /checkValid [32m200 [0m74.670 ms - 5[0m
[0mPUT /db/Project_Management/Roadmap_IV/%225ba3ae9c9f6388079b01dc9f%22 [36m302 [0m47.892 ms - 110[0m
[0mGET /db/Project_Management/Roadmap_IV [32m200 [0m108.685 ms - 582738[0m
[0mGET /public/css/style.css [32m200 [0m1.177 ms - 1883[0m
[0mGET /public/css/bootstrap-theme.min.css [32m200 [0m2.378 ms - 23409[0m
[0mGET /public/css/bootstrap.min.css [36m304 [0m1.155 ms - -[0m
[0mGET /public/css/codemirror.css [32m200 [0m2.820 ms - 8542[0m
[0mGET /public/css/theme/rubyblue.css [32m200 [0m1.518 ms - 1801[0m
[0mGET /public/vendor-47ad38d08af7dbfa26be.min.js [32m200 [0m2.244 ms - 126314[0m
[0mGET /public/codemirror-298693927a3d2ff0c905.min.js [32m200 [0m2.342 ms - 184058[0m
[0mGET /public/collection-de5030f1c86993d175a9.min.js [36m304 [0m0.391 ms - -[0m
[0mGET /public/img/mongo-express-logo.png [32m200 [0m1.085 ms - 17847[0m
[0mGET /public/img/gears.gif [32m200 [0m0.614 ms - 50281[0m
[0mGET /db/Project_Management/Roadmap_IV/%25225ba3ae9c9f6388079b01dc9f%2522 [32m200 [0m41.312 ms - 118507[0m
[0mGET /public/css/bootstrap.min.css [36m304 [0m2.506 ms - -[0m
[0mGET /public/css/bootstrap-theme.min.css [36m304 [0m2.336 ms - -[0m
[0mGET /public/css/style.css [36m304 [0m2.258 ms - -[0m
[0mGET /public/css/codemirror.css [36m304 [0m2.147 ms - -[0m
[0mGET /public/css/theme/rubyblue.css [36m304 [0m1.878 ms - -[0m
[0mGET /public/vendor-47ad38d08af7dbfa26be.min.js [36m304 [0m0.272 ms - -[0m
[0mGET /public/document-14c5429f8bb0330baeef.min.js [36m304 [0m0.755 ms - -[0m
[0mGET /public/codemirror-298693927a3d2ff0c905.min.js [36m304 [0m0.725 ms - -[0m
[0mGET /public/img/mongo-express-logo.png [36m304 [0m0.273 ms - -[0m
[0mGET /public/img/gears.gif [32m200 [0m1.054 ms - 50281[0m
