t=2018-01-13T20:33:49+0100 lvl=warn msg="failed to get home directory, using $HOME instead" err="user: Current not implemented on linux/386" $HOME=
Authtoken saved to configuration file: .ngrok2/ngrok.yml
t=2018-01-13T20:33:49+0100 lvl=warn msg="failed to get home directory, using $HOME instead" err="user: Current not implemented on linux/386" $HOME=
t=2018-01-13T20:34:37+0100 lvl=warn msg="failed to get home directory, using $HOME instead" err="user: Current not implemented on linux/386" $HOME=
Authtoken saved to configuration file: .ngrok2/ngrok.yml
t=2018-01-13T20:34:37+0100 lvl=warn msg="failed to get home directory, using $HOME instead" err="user: Current not implemented on linux/386" $HOME=
t=2018-02-01T13:05:59+0100 lvl=warn msg="failed to get home directory, using $HOME instead" err="user: Current not implemented on linux/386" $HOME=
Authtoken saved to configuration file: .ngrok2/ngrok.yml
t=2018-02-01T13:05:59+0100 lvl=warn msg="failed to get home directory, using $HOME instead" err="user: Current not implemented on linux/386" $HOME=
t=2018-02-01T13:07:37+0100 lvl=warn msg="failed to get home directory, using $HOME instead" err="user: Current not implemented on linux/386" $HOME=
Authtoken saved to configuration file: .ngrok2/ngrok.yml
t=2018-02-01T13:07:37+0100 lvl=warn msg="failed to get home directory, using $HOME instead" err="user: Current not implemented on linux/386" $HOME=
t=2018-02-03T14:34:39+0100 lvl=warn msg="failed to get home directory, using $HOME instead" err="user: Current not implemented on linux/386" $HOME=
Authtoken saved to configuration file: .ngrok2/ngrok.yml
t=2018-02-03T14:34:39+0100 lvl=warn msg="failed to get home directory, using $HOME instead" err="user: Current not implemented on linux/386" $HOME=
Tunnel session failed: The tunnel 'https://www.koondal.fr' is already bound to another tunnel session

ERR_NGROK_334

t=2018-02-04T10:21:20+0100 lvl=warn msg="failed to get home directory, using $HOME instead" err="user: Current not implemented on linux/386" $HOME=
Authtoken saved to configuration file: .ngrok2/ngrok.yml
t=2018-02-04T10:21:20+0100 lvl=warn msg="failed to get home directory, using $HOME instead" err="user: Current not implemented on linux/386" $HOME=
Tunnel session failed: Your account 'Tarik Elkalai' is limited to 2 simultaneous ngrok client sessions.
Active ngrok client sessions in region 'us':
  - b17da56b2111a86f7cbdbba3b196fd2d (2001:41d0:2:2286::)
  - c44363894e552f3fbc16e85b716b3fb6 (2001:41d0:2:2286::)

ERR_NGROK_108

t=2018-02-04T10:21:21+0100 lvl=warn msg="failed to get home directory, using $HOME instead" err="user: Current not implemented on linux/386" $HOME=
Authtoken saved to configuration file: .ngrok2/ngrok.yml
t=2018-02-04T10:21:21+0100 lvl=warn msg="failed to get home directory, using $HOME instead" err="user: Current not implemented on linux/386" $HOME=
Tunnel session failed: Your account 'Tarik Elkalai' is limited to 2 simultaneous ngrok client sessions.
Active ngrok client sessions in region 'us':
  - b17da56b2111a86f7cbdbba3b196fd2d (2001:41d0:2:2286::)
  - c44363894e552f3fbc16e85b716b3fb6 (2001:41d0:2:2286::)

ERR_NGROK_108

t=2018-02-04T10:22:32+0100 lvl=warn msg="failed to get home directory, using $HOME instead" err="user: Current not implemented on linux/386" $HOME=
Authtoken saved to configuration file: .ngrok2/ngrok.yml
t=2018-02-04T10:22:32+0100 lvl=warn msg="failed to get home directory, using $HOME instead" err="user: Current not implemented on linux/386" $HOME=
t=2018-02-04T14:51:41+0100 lvl=warn msg="failed to get home directory, using $HOME instead" err="user: Current not implemented on linux/386" $HOME=
Authtoken saved to configuration file: .ngrok2/ngrok.yml
t=2018-02-04T14:51:41+0100 lvl=warn msg="failed to get home directory, using $HOME instead" err="user: Current not implemented on linux/386" $HOME=
t=2018-02-04T14:52:51+0100 lvl=warn msg="failed to get home directory, using $HOME instead" err="user: Current not implemented on linux/386" $HOME=
Authtoken saved to configuration file: .ngrok2/ngrok.yml
t=2018-02-04T14:52:51+0100 lvl=warn msg="failed to get home directory, using $HOME instead" err="user: Current not implemented on linux/386" $HOME=
t=2018-02-12T10:58:10+0100 lvl=warn msg="failed to get home directory, using $HOME instead" err="user: Current not implemented on linux/386" $HOME=
Authtoken saved to configuration file: .ngrok2/ngrok.yml
t=2018-02-12T10:58:10+0100 lvl=warn msg="failed to get home directory, using $HOME instead" err="user: Current not implemented on linux/386" $HOME=
Tunnel session failed: Your account 'Tarik Elkalai' is limited to 2 simultaneous ngrok client sessions.
Active ngrok client sessions in region 'us':
  - 99c78d5f800023f7349e12ea6f7373b4 (2001:41d0:2:2286::)
  - d2cfd8778ab445eef8c7b09c48f74a8b (2001:41d0:2:2286::)

ERR_NGROK_108

t=2018-02-12T10:58:11+0100 lvl=warn msg="failed to get home directory, using $HOME instead" err="user: Current not implemented on linux/386" $HOME=
Authtoken saved to configuration file: .ngrok2/ngrok.yml
t=2018-02-12T10:58:11+0100 lvl=warn msg="failed to get home directory, using $HOME instead" err="user: Current not implemented on linux/386" $HOME=
Tunnel session failed: Your account 'Tarik Elkalai' is limited to 2 simultaneous ngrok client sessions.
Active ngrok client sessions in region 'us':
  - 99c78d5f800023f7349e12ea6f7373b4 (2001:41d0:2:2286::)
  - d2cfd8778ab445eef8c7b09c48f74a8b (2001:41d0:2:2286::)

ERR_NGROK_108

t=2018-02-12T10:58:14+0100 lvl=warn msg="failed to get home directory, using $HOME instead" err="user: Current not implemented on linux/386" $HOME=
Authtoken saved to configuration file: .ngrok2/ngrok.yml
t=2018-02-12T10:58:14+0100 lvl=warn msg="failed to get home directory, using $HOME instead" err="user: Current not implemented on linux/386" $HOME=
Tunnel session failed: Your account 'Tarik Elkalai' is limited to 2 simultaneous ngrok client sessions.
Active ngrok client sessions in region 'us':
  - 99c78d5f800023f7349e12ea6f7373b4 (2001:41d0:2:2286::)
  - d2cfd8778ab445eef8c7b09c48f74a8b (2001:41d0:2:2286::)

ERR_NGROK_108

t=2018-02-12T10:58:18+0100 lvl=warn msg="failed to get home directory, using $HOME instead" err="user: Current not implemented on linux/386" $HOME=
Authtoken saved to configuration file: .ngrok2/ngrok.yml
t=2018-02-12T10:58:18+0100 lvl=warn msg="failed to get home directory, using $HOME instead" err="user: Current not implemented on linux/386" $HOME=
Tunnel session failed: Your account 'Tarik Elkalai' is limited to 2 simultaneous ngrok client sessions.
Active ngrok client sessions in region 'us':
  - 99c78d5f800023f7349e12ea6f7373b4 (2001:41d0:2:2286::)
  - d2cfd8778ab445eef8c7b09c48f74a8b (2001:41d0:2:2286::)

ERR_NGROK_108

t=2018-02-13T13:20:10+0100 lvl=warn msg="failed to get home directory, using $HOME instead" err="user: Current not implemented on linux/386" $HOME=
Authtoken saved to configuration file: .ngrok2/ngrok.yml
t=2018-02-13T13:20:10+0100 lvl=warn msg="failed to get home directory, using $HOME instead" err="user: Current not implemented on linux/386" $HOME=
t=2018-02-15T19:20:49+0100 lvl=warn msg="failed to get home directory, using $HOME instead" err="user: Current not implemented on linux/386" $HOME=
Authtoken saved to configuration file: .ngrok2/ngrok.yml
t=2018-02-15T19:20:49+0100 lvl=warn msg="failed to get home directory, using $HOME instead" err="user: Current not implemented on linux/386" $HOME=
Tunnel session failed: Your account 'Tarik Elkalai' is limited to 2 simultaneous ngrok client sessions.
Active ngrok client sessions in region 'us':
  - 9ba47068b6fb00dc0d09b7a5da3fdc0e (2001:41d0:2:2286::)
  - a3863632e6f7ac0373a730c0c9e89b79 (2001:41d0:2:2286::)

ERR_NGROK_108

t=2018-02-15T19:20:51+0100 lvl=warn msg="failed to get home directory, using $HOME instead" err="user: Current not implemented on linux/386" $HOME=
Authtoken saved to configuration file: .ngrok2/ngrok.yml
t=2018-02-15T19:20:51+0100 lvl=warn msg="failed to get home directory, using $HOME instead" err="user: Current not implemented on linux/386" $HOME=
Tunnel session failed: Your account 'Tarik Elkalai' is limited to 2 simultaneous ngrok client sessions.
Active ngrok client sessions in region 'us':
  - 9ba47068b6fb00dc0d09b7a5da3fdc0e (2001:41d0:2:2286::)
  - a3863632e6f7ac0373a730c0c9e89b79 (2001:41d0:2:2286::)

ERR_NGROK_108

t=2018-02-15T19:20:53+0100 lvl=warn msg="failed to get home directory, using $HOME instead" err="user: Current not implemented on linux/386" $HOME=
Authtoken saved to configuration file: .ngrok2/ngrok.yml
t=2018-02-15T19:20:53+0100 lvl=warn msg="failed to get home directory, using $HOME instead" err="user: Current not implemented on linux/386" $HOME=
Tunnel session failed: Your account 'Tarik Elkalai' is limited to 2 simultaneous ngrok client sessions.
Active ngrok client sessions in region 'us':
  - 9ba47068b6fb00dc0d09b7a5da3fdc0e (2001:41d0:2:2286::)
  - a3863632e6f7ac0373a730c0c9e89b79 (2001:41d0:2:2286::)

ERR_NGROK_108

t=2018-02-15T19:20:57+0100 lvl=warn msg="failed to get home directory, using $HOME instead" err="user: Current not implemented on linux/386" $HOME=
Authtoken saved to configuration file: .ngrok2/ngrok.yml
t=2018-02-15T19:20:57+0100 lvl=warn msg="failed to get home directory, using $HOME instead" err="user: Current not implemented on linux/386" $HOME=
Tunnel session failed: Your account 'Tarik Elkalai' is limited to 2 simultaneous ngrok client sessions.
Active ngrok client sessions in region 'us':
  - 9ba47068b6fb00dc0d09b7a5da3fdc0e (2001:41d0:2:2286::)
  - a3863632e6f7ac0373a730c0c9e89b79 (2001:41d0:2:2286::)

ERR_NGROK_108

t=2018-02-15T19:22:09+0100 lvl=warn msg="failed to get home directory, using $HOME instead" err="user: Current not implemented on linux/386" $HOME=
Authtoken saved to configuration file: .ngrok2/ngrok.yml
t=2018-02-15T19:22:09+0100 lvl=warn msg="failed to get home directory, using $HOME instead" err="user: Current not implemented on linux/386" $HOME=
t=2018-02-19T14:26:11+0100 lvl=warn msg="failed to get home directory, using $HOME instead" err="user: Current not implemented on linux/386" $HOME=
Authtoken saved to configuration file: .ngrok2/ngrok.yml
t=2018-02-19T14:26:11+0100 lvl=warn msg="failed to get home directory, using $HOME instead" err="user: Current not implemented on linux/386" $HOME=
t=2018-02-20T21:09:05+0100 lvl=warn msg="failed to get home directory, using $HOME instead" err="user: Current not implemented on linux/386" $HOME=
Authtoken saved to configuration file: .ngrok2/ngrok.yml
t=2018-02-20T21:09:05+0100 lvl=warn msg="failed to get home directory, using $HOME instead" err="user: Current not implemented on linux/386" $HOME=
t=2018-02-20T21:10:15+0100 lvl=warn msg="failed to get home directory, using $HOME instead" err="user: Current not implemented on linux/386" $HOME=
Authtoken saved to configuration file: .ngrok2/ngrok.yml
t=2018-02-20T21:10:15+0100 lvl=warn msg="failed to get home directory, using $HOME instead" err="user: Current not implemented on linux/386" $HOME=
t=2018-02-21T16:51:15+0100 lvl=warn msg="failed to get home directory, using $HOME instead" err="user: Current not implemented on linux/386" $HOME=
Authtoken saved to configuration file: .ngrok2/ngrok.yml
t=2018-02-21T16:51:15+0100 lvl=warn msg="failed to get home directory, using $HOME instead" err="user: Current not implemented on linux/386" $HOME=
t=2018-04-02T18:17:44+0200 lvl=warn msg="failed to get home directory, using $HOME instead" err="user: Current not implemented on linux/386" $HOME=
Authtoken saved to configuration file: .ngrok2/ngrok.yml
t=2018-04-02T18:17:44+0200 lvl=warn msg="failed to get home directory, using $HOME instead" err="user: Current not implemented on linux/386" $HOME=
t=2018-05-07T18:04:21+0200 lvl=warn msg="failed to get home directory, using $HOME instead" err="user: Current not implemented on linux/386" $HOME=
Authtoken saved to configuration file: .ngrok2/ngrok.yml
t=2018-05-07T18:04:21+0200 lvl=warn msg="failed to get home directory, using $HOME instead" err="user: Current not implemented on linux/386" $HOME=
t=2018-05-15T21:05:52+0200 lvl=warn msg="failed to get home directory, using $HOME instead" err="user: Current not implemented on linux/386" $HOME=
Authtoken saved to configuration file: .ngrok2/ngrok.yml
t=2018-05-15T21:05:52+0200 lvl=warn msg="failed to get home directory, using $HOME instead" err="user: Current not implemented on linux/386" $HOME=
t=2018-06-13T00:52:53+0200 lvl=warn msg="failed to get home directory, using $HOME instead" err="user: Current not implemented on linux/386" $HOME=
Authtoken saved to configuration file: .ngrok2/ngrok.yml
t=2018-06-13T00:52:53+0200 lvl=warn msg="failed to get home directory, using $HOME instead" err="user: Current not implemented on linux/386" $HOME=
Tunnel session failed: Your account 'Tarik Elkalai' is limited to 2 simultaneous ngrok client sessions.
Active ngrok client sessions in region 'us':
  - 7a774939f09d073dffd6a4e5acc86531 (2001:41d0:2:2286::)
  - 9d145e1ecd21225e5b7eb8d487e67f1b (2001:41d0:2:2286::)

ERR_NGROK_108

t=2018-06-13T00:52:55+0200 lvl=warn msg="failed to get home directory, using $HOME instead" err="user: Current not implemented on linux/386" $HOME=
Authtoken saved to configuration file: .ngrok2/ngrok.yml
t=2018-06-13T00:52:55+0200 lvl=warn msg="failed to get home directory, using $HOME instead" err="user: Current not implemented on linux/386" $HOME=
Tunnel session failed: Your account 'Tarik Elkalai' is limited to 2 simultaneous ngrok client sessions.
Active ngrok client sessions in region 'us':
  - 7a774939f09d073dffd6a4e5acc86531 (2001:41d0:2:2286::)
  - 9d145e1ecd21225e5b7eb8d487e67f1b (2001:41d0:2:2286::)

ERR_NGROK_108

t=2018-06-13T00:52:57+0200 lvl=warn msg="failed to get home directory, using $HOME instead" err="user: Current not implemented on linux/386" $HOME=
Authtoken saved to configuration file: .ngrok2/ngrok.yml
t=2018-06-13T00:52:57+0200 lvl=warn msg="failed to get home directory, using $HOME instead" err="user: Current not implemented on linux/386" $HOME=
Tunnel session failed: Your account 'Tarik Elkalai' is limited to 2 simultaneous ngrok client sessions.
Active ngrok client sessions in region 'us':
  - 7a774939f09d073dffd6a4e5acc86531 (2001:41d0:2:2286::)
  - 9d145e1ecd21225e5b7eb8d487e67f1b (2001:41d0:2:2286::)

ERR_NGROK_108

t=2018-06-13T00:53:01+0200 lvl=warn msg="failed to get home directory, using $HOME instead" err="user: Current not implemented on linux/386" $HOME=
Authtoken saved to configuration file: .ngrok2/ngrok.yml
t=2018-06-13T01:12:24+0200 lvl=warn msg="failed to get home directory, using $HOME instead" err="user: Current not implemented on linux/386" $HOME=
Authtoken saved to configuration file: .ngrok2/ngrok.yml
t=2018-06-13T01:12:24+0200 lvl=warn msg="failed to get home directory, using $HOME instead" err="user: Current not implemented on linux/386" $HOME=
